"{\"href\":\"https://api.spotify.com/v1/me/top/artists?limit=5&time_range=short_term\",\"limit\":5,\"next\":\"https://api.spotify.com/v1/me/top/artists?offset=5&limit=5&time_range=short_term\",\"offset\":0,\"previous\":null,\"total\":84,\"items\":[{\"external_urls\":{\"spotify\":\"https://open.spotify.com/artist/6XyY86QOPPrYVGvF9ch6wz\"},\"href\":\"https://api.spotify.com/v1/artists/6XyY86QOPPrYVGvF9ch6wz\",\"id\":\"6XyY86QOPPrYVGvF9ch6wz\",\"name\":\"Linkin Park\",\"type\":\"artist\",\"uri\":\"spotify:artist:6XyY86QOPPrYVGvF9ch6wz\",\"followers\":{\"total\":27597786},\"genres\":[\"alternative metal\",\"nu metal\",\"post-grunge\",\"rap metal\",\"rock\"],\"images\":[{\"url\":\"https://i.scdn.co/image/ab6761610000e5ebc7e6bd9e65eab62a53355576\",\"height\":640,\"width\":640},{\"url\":\"https://i.scdn.co/image/ab67616100005174c7e6bd9e65eab62a53355576\",\"height\":320,\"width\":320},{\"url\":\"https://i.scdn.co/image/ab6761610000f178c7e6bd9e65eab62a53355576\",\"height\":160,\"width\":160}],\"popularity\":93},{\"external_urls\":{\"spotify\":\"https://open.spotify.com/artist/7FBcuc1gsnv6Y1nwFtNRCb\"},\"href\":\"https://api.spotify.com/v1/artists/7FBcuc1gsnv6Y1nwFtNRCb\",\"id\":\"7FBcuc1gsnv6Y1nwFtNRCb\",\"name\":\"My Chemical Romance\",\"type\":\"artist\",\"uri\":\"spotify:artist:7FBcuc1gsnv6Y1nwFtNRCb\",\"followers\":{\"total\":9085988},\"genres\":[\"emo\",\"modern rock\",\"pop punk\",\"pov: indie\",\"rock\"],\"images\":[{\"url\":\"https://i.scdn.co/image/ab6761610000e5eb9c00ad0308287b38b8fdabc2\",\"height\":640,\"width\":640},{\"url\":\"https://i.scdn.co/image/ab676161000051749c00ad0308287b38b8fdabc2\",\"height\":320,\"width\":320},{\"url\":\"https://i.scdn.co/image/ab6761610000f1789c00ad0308287b38b8fdabc2\",\"height\":160,\"width\":160}],\"popularity\":80},{\"external_urls\":{\"spotify\":\"https://open.spotify.com/artist/2nvl0N9GwyX69RRBMEZ4OD\"},\"href\":\"https://api.spotify.com/v1/artists/2nvl0N9GwyX69RRBMEZ4OD\",\"id\":\"2nvl0N9GwyX69RRBMEZ4OD\",\"name\":\"\u7d50\u675f\u30d0\u30f3\u30c9\",\"type\":\"artist\",\"uri\":\"spotify:artist:2nvl0N9GwyX69RRBMEZ4OD\",\"followers\":{\"total\":533572},\"genres\":[],\"images\":[{\"url\":\"https://i.scdn.co/image/ab6761610000e5eb38df323a9b0d7880ae59590b\",\"height\":640,\"width\":640},{\"url\":\"https://i.scdn.co/image/ab6761610000517438df323a9b0d7880ae59590b\",\"height\":320,\"width\":320},{\"url\":\"https://i.scdn.co/image/ab6761610000f17838df323a9b0d7880ae59590b\",\"height\":160,\"width\":160}],\"popularity\":64},{\"external_urls\":{\"spotify\":\"https://open.spotify.com/artist/1YLxQZIGsaZq9rvFu8zeRz\"},\"href\":\"https://api.spotify.com/v1/artists/1YLxQZIGsaZq9rvFu8zeRz\",\"id\":\"1YLxQZIGsaZq9rvFu8zeRz\",\"name\":\"Sayuri\",\"type\":\"artist\",\"uri\":\"spotify:artist:1YLxQZIGsaZq9rvFu8zeRz\",\"followers\":{\"total\":419273},\"genres\":[\"anime\",\"anime rock\",\"j-pixie\"],\"images\":[{\"url\":\"https://i.scdn.co/image/ab6761610000e5ebb1f57cab1a62f826a54dc887\",\"height\":640,\"width\":640},{\"url\":\"https://i.scdn.co/image/ab67616100005174b1f57cab1a62f826a54dc887\",\"height\":320,\"width\":320},{\"url\":\"https://i.scdn.co/image/ab6761610000f178b1f57cab1a62f826a54dc887\",\"height\":160,\"width\":160}],\"popularity\":57},{\"external_urls\":{\"spotify\":\"https://open.spotify.com/artist/23ytwhG1pzX6DIVWRWvW1r\"},\"href\":\"https://api.spotify.com/v1/artists/23ytwhG1pzX6DIVWRWvW1r\",\"id\":\"23ytwhG1pzX6DIVWRWvW1r\",\"name\":\"TesseracT\",\"type\":\"artist\",\"uri\":\"spotify:artist:23ytwhG1pzX6DIVWRWvW1r\",\"followers\":{\"total\":328081},\"genres\":[\"djent\",\"progressive metal\"],\"images\":[{\"url\":\"https://i.scdn.co/image/ab6761610000e5ebe7f6346ac85070065ea2368d\",\"height\":640,\"width\":640},{\"url\":\"https://i.scdn.co/image/ab67616100005174e7f6346ac85070065ea2368d\",\"height\":320,\"width\":320},{\"url\":\"https://i.scdn.co/image/ab6761610000f178e7f6346ac85070065ea2368d\",\"height\":160,\"width\":160}],\"popularity\":48}]}"