"{\"href\":\"https://api.spotify.com/v1/me/top/artists?limit=5&time_range=medium_term\",\"limit\":5,\"next\":\"https://api.spotify.com/v1/me/top/artists?offset=5&limit=5&time_range=medium_term\",\"offset\":0,\"previous\":null,\"total\":340,\"items\":[{\"external_urls\":{\"spotify\":\"https://open.spotify.com/artist/6guC9FqvlVboSKTI77NG2k\"},\"href\":\"https://api.spotify.com/v1/artists/6guC9FqvlVboSKTI77NG2k\",\"id\":\"6guC9FqvlVboSKTI77NG2k\",\"name\":\"Dance Gavin Dance\",\"type\":\"artist\",\"uri\":\"spotify:artist:6guC9FqvlVboSKTI77NG2k\",\"followers\":{\"total\":736931},\"genres\":[\"pixie\",\"sacramento indie\",\"screamo\",\"swancore\"],\"images\":[{\"url\":\"https://i.scdn.co/image/ab6761610000e5ebac986a89e9043470101b9c54\",\"height\":640,\"width\":640},{\"url\":\"https://i.scdn.co/image/ab67616100005174ac986a89e9043470101b9c54\",\"height\":320,\"width\":320},{\"url\":\"https://i.scdn.co/image/ab6761610000f178ac986a89e9043470101b9c54\",\"height\":160,\"width\":160}],\"popularity\":64},{\"external_urls\":{\"spotify\":\"https://open.spotify.com/artist/6XyY86QOPPrYVGvF9ch6wz\"},\"href\":\"https://api.spotify.com/v1/artists/6XyY86QOPPrYVGvF9ch6wz\",\"id\":\"6XyY86QOPPrYVGvF9ch6wz\",\"name\":\"Linkin Park\",\"type\":\"artist\",\"uri\":\"spotify:artist:6XyY86QOPPrYVGvF9ch6wz\",\"followers\":{\"total\":27597786},\"genres\":[\"alternative metal\",\"nu metal\",\"post-grunge\",\"rap metal\",\"rock\"],\"images\":[{\"url\":\"https://i.scdn.co/image/ab6761610000e5ebc7e6bd9e65eab62a53355576\",\"height\":640,\"width\":640},{\"url\":\"https://i.scdn.co/image/ab67616100005174c7e6bd9e65eab62a53355576\",\"height\":320,\"width\":320},{\"url\":\"https://i.scdn.co/image/ab6761610000f178c7e6bd9e65eab62a53355576\",\"height\":160,\"width\":160}],\"popularity\":93},{\"external_urls\":{\"spotify\":\"https://open.spotify.com/artist/7FBcuc1gsnv6Y1nwFtNRCb\"},\"href\":\"https://api.spotify.com/v1/artists/7FBcuc1gsnv6Y1nwFtNRCb\",\"id\":\"7FBcuc1gsnv6Y1nwFtNRCb\",\"name\":\"My Chemical Romance\",\"type\":\"artist\",\"uri\":\"spotify:artist:7FBcuc1gsnv6Y1nwFtNRCb\",\"followers\":{\"total\":9085988},\"genres\":[\"emo\",\"modern rock\",\"pop punk\",\"pov: indie\",\"rock\"],\"images\":[{\"url\":\"https://i.scdn.co/image/ab6761610000e5eb9c00ad0308287b38b8fdabc2\",\"height\":640,\"width\":640},{\"url\":\"https://i.scdn.co/image/ab676161000051749c00ad0308287b38b8fdabc2\",\"height\":320,\"width\":320},{\"url\":\"https://i.scdn.co/image/ab6761610000f1789c00ad0308287b38b8fdabc2\",\"height\":160,\"width\":160}],\"popularity\":80},{\"external_urls\":{\"spotify\":\"https://open.spotify.com/artist/6Ghvu1VvMGScGpOUJBAHNH\"},\"href\":\"https://api.spotify.com/v1/artists/6Ghvu1VvMGScGpOUJBAHNH\",\"id\":\"6Ghvu1VvMGScGpOUJBAHNH\",\"name\":\"Deftones\",\"type\":\"artist\",\"uri\":\"spotify:artist:6Ghvu1VvMGScGpOUJBAHNH\",\"followers\":{\"total\":6185487},\"genres\":[\"alternative metal\",\"nu metal\",\"rap metal\",\"rock\",\"sacramento indie\"],\"images\":[{\"url\":\"https://i.scdn.co/image/ab6761610000e5eb4b2da0b72cab26ac518f1f0d\",\"height\":640,\"width\":640},{\"url\":\"https://i.scdn.co/image/ab676161000051744b2da0b72cab26ac518f1f0d\",\"height\":320,\"width\":320},{\"url\":\"https://i.scdn.co/image/ab6761610000f1784b2da0b72cab26ac518f1f0d\",\"height\":160,\"width\":160}],\"popularity\":81},{\"external_urls\":{\"spotify\":\"https://open.spotify.com/artist/0s4Ma1D3irgqrQCRBUhc73\"},\"href\":\"https://api.spotify.com/v1/artists/0s4Ma1D3irgqrQCRBUhc73\",\"id\":\"0s4Ma1D3irgqrQCRBUhc73\",\"name\":\"my dead girlfriend\",\"type\":\"artist\",\"uri\":\"spotify:artist:0s4Ma1D3irgqrQCRBUhc73\",\"followers\":{\"total\":88292},\"genres\":[\"glitchbreak\",\"japanese shoegaze\"],\"images\":[{\"url\":\"https://i.scdn.co/image/ab6761610000e5eb5b07e21c3852dccaef72b4f3\",\"height\":640,\"width\":640},{\"url\":\"https://i.scdn.co/image/ab676161000051745b07e21c3852dccaef72b4f3\",\"height\":320,\"width\":320},{\"url\":\"https://i.scdn.co/image/ab6761610000f1785b07e21c3852dccaef72b4f3\",\"height\":160,\"width\":160}],\"popularity\":44}]}"