"{\"href\":\"https://api.spotify.com/v1/me/top/tracks?limit=5&time_range=long_term\",\"limit\":5,\"next\":\"https://api.spotify.com/v1/me/top/tracks?offset=5&limit=5&time_range=long_term\",\"offset\":0,\"previous\":null,\"total\":7563,\"items\":[{\"album\":{\"album_type\":\"single\",\"total_tracks\":1,\"available_markets\":[\"AR\",\"AU\",\"AT\",\"BE\",\"BO\",\"BR\",\"BG\",\"CA\",\"CL\",\"CO\",\"CR\",\"CY\",\"CZ\",\"DK\",\"DO\",\"DE\",\"EC\",\"EE\",\"SV\",\"FI\",\"FR\",\"GR\",\"GT\",\"HN\",\"HK\",\"HU\",\"IS\",\"IE\",\"IT\",\"LV\",\"LT\",\"LU\",\"MY\",\"MT\",\"MX\",\"NL\",\"NZ\",\"NI\",\"NO\",\"PA\",\"PY\",\"PE\",\"PH\",\"PL\",\"PT\",\"SG\",\"SK\",\"ES\",\"SE\",\"CH\",\"TW\",\"TR\",\"UY\",\"US\",\"GB\",\"AD\",\"LI\",\"MC\",\"ID\",\"JP\",\"TH\",\"VN\",\"RO\",\"IL\",\"ZA\",\"SA\",\"AE\",\"BH\",\"QA\",\"OM\",\"KW\",\"EG\",\"MA\",\"DZ\",\"TN\",\"LB\",\"JO\",\"PS\",\"IN\",\"BY\",\"KZ\",\"MD\",\"UA\",\"AL\",\"BA\",\"HR\",\"ME\",\"MK\",\"RS\",\"SI\",\"KR\",\"BD\",\"PK\",\"LK\",\"GH\",\"KE\",\"NG\",\"TZ\",\"UG\",\"AG\",\"AM\",\"BS\",\"BB\",\"BZ\",\"BT\",\"BW\",\"BF\",\"CV\",\"CW\",\"DM\",\"FJ\",\"GM\",\"GE\",\"GD\",\"GW\",\"GY\",\"HT\",\"JM\",\"KI\",\"LS\",\"LR\",\"MW\",\"MV\",\"ML\",\"MH\",\"FM\",\"NA\",\"NR\",\"NE\",\"PW\",\"PG\",\"PR\",\"WS\",\"SM\",\"ST\",\"SN\",\"SC\",\"SL\",\"SB\",\"KN\",\"LC\",\"VC\",\"SR\",\"TL\",\"TO\",\"TT\",\"TV\",\"VU\",\"AZ\",\"BN\",\"BI\",\"KH\",\"CM\",\"TD\",\"KM\",\"GQ\",\"SZ\",\"GA\",\"GN\",\"KG\",\"LA\",\"MO\",\"MR\",\"MN\",\"NP\",\"RW\",\"TG\",\"UZ\",\"ZW\",\"BJ\",\"MG\",\"MU\",\"MZ\",\"AO\",\"CI\",\"DJ\",\"ZM\",\"CD\",\"CG\",\"IQ\",\"LY\",\"TJ\",\"VE\",\"ET\",\"XK\"],\"external_urls\":{\"spotify\":\"https://open.spotify.com/album/6PmIi4asxDdrpIcZKHYfWp\"},\"href\":\"https://api.spotify.com/v1/albums/6PmIi4asxDdrpIcZKHYfWp\",\"id\":\"6PmIi4asxDdrpIcZKHYfWp\",\"images\":[{\"url\":\"https://i.scdn.co/image/ab67616d0000b273255ca949e450cb675edf715d\",\"height\":640,\"width\":640},{\"url\":\"https://i.scdn.co/image/ab67616d00001e02255ca949e450cb675edf715d\",\"height\":300,\"width\":300},{\"url\":\"https://i.scdn.co/image/ab67616d00004851255ca949e450cb675edf715d\",\"height\":64,\"width\":64}],\"name\":\"\u30ae\u30bf\u30fc\u3068\u5b64\u72ec\u3068\u84bc\u3044\u60d1\u661f\",\"release_date\":\"2022-11-06\",\"release_date_precision\":\"day\",\"restrictions\":null,\"type\":\"album\",\"uri\":\"spotify:album:6PmIi4asxDdrpIcZKHYfWp\",\"artists\":[{\"external_urls\":{\"spotify\":\"https://open.spotify.com/artist/2nvl0N9GwyX69RRBMEZ4OD\"},\"href\":\"https://api.spotify.com/v1/artists/2nvl0N9GwyX69RRBMEZ4OD\",\"id\":\"2nvl0N9GwyX69RRBMEZ4OD\",\"name\":\"\u7d50\u675f\u30d0\u30f3\u30c9\",\"type\":\"artist\",\"uri\":\"spotify:artist:2nvl0N9GwyX69RRBMEZ4OD\"}]},\"artists\":[{\"external_urls\":{\"spotify\":\"https://open.spotify.com/artist/2nvl0N9GwyX69RRBMEZ4OD\"},\"href\":\"https://api.spotify.com/v1/artists/2nvl0N9GwyX69RRBMEZ4OD\",\"id\":\"2nvl0N9GwyX69RRBMEZ4OD\",\"name\":\"\u7d50\u675f\u30d0\u30f3\u30c9\",\"type\":\"artist\",\"uri\":\"spotify:artist:2nvl0N9GwyX69RRBMEZ4OD\"}],\"available_markets\":[\"AR\",\"AU\",\"AT\",\"BE\",\"BO\",\"BR\",\"BG\",\"CA\",\"CL\",\"CO\",\"CR\",\"CY\",\"CZ\",\"DK\",\"DO\",\"DE\",\"EC\",\"EE\",\"SV\",\"FI\",\"FR\",\"GR\",\"GT\",\"HN\",\"HK\",\"HU\",\"IS\",\"IE\",\"IT\",\"LV\",\"LT\",\"LU\",\"MY\",\"MT\",\"MX\",\"NL\",\"NZ\",\"NI\",\"NO\",\"PA\",\"PY\",\"PE\",\"PH\",\"PL\",\"PT\",\"SG\",\"SK\",\"ES\",\"SE\",\"CH\",\"TW\",\"TR\",\"UY\",\"US\",\"GB\",\"AD\",\"LI\",\"MC\",\"ID\",\"JP\",\"TH\",\"VN\",\"RO\",\"IL\",\"ZA\",\"SA\",\"AE\",\"BH\",\"QA\",\"OM\",\"KW\",\"EG\",\"MA\",\"DZ\",\"TN\",\"LB\",\"JO\",\"PS\",\"IN\",\"BY\",\"KZ\",\"MD\",\"UA\",\"AL\",\"BA\",\"HR\",\"ME\",\"MK\",\"RS\",\"SI\",\"KR\",\"BD\",\"PK\",\"LK\",\"GH\",\"KE\",\"NG\",\"TZ\",\"UG\",\"AG\",\"AM\",\"BS\",\"BB\",\"BZ\",\"BT\",\"BW\",\"BF\",\"CV\",\"CW\",\"DM\",\"FJ\",\"GM\",\"GE\",\"GD\",\"GW\",\"GY\",\"HT\",\"JM\",\"KI\",\"LS\",\"LR\",\"MW\",\"MV\",\"ML\",\"MH\",\"FM\",\"NA\",\"NR\",\"NE\",\"PW\",\"PG\",\"PR\",\"WS\",\"SM\",\"ST\",\"SN\",\"SC\",\"SL\",\"SB\",\"KN\",\"LC\",\"VC\",\"SR\",\"TL\",\"TO\",\"TT\",\"TV\",\"VU\",\"AZ\",\"BN\",\"BI\",\"KH\",\"CM\",\"TD\",\"KM\",\"GQ\",\"SZ\",\"GA\",\"GN\",\"KG\",\"LA\",\"MO\",\"MR\",\"MN\",\"NP\",\"RW\",\"TG\",\"UZ\",\"ZW\",\"BJ\",\"MG\",\"MU\",\"MZ\",\"AO\",\"CI\",\"DJ\",\"ZM\",\"CD\",\"CG\",\"IQ\",\"LY\",\"TJ\",\"VE\",\"ET\",\"XK\"],\"disc_number\":1,\"duration_ms\":228960,\"explicit\":false,\"external_ids\":{\"isrc\":\"JPE302201022\"},\"external_urls\":{\"spotify\":\"https://open.spotify.com/track/17rhDgnYYryQU4uS71ZxFu\"},\"href\":\"https://api.spotify.com/v1/tracks/17rhDgnYYryQU4uS71ZxFu\",\"id\":\"17rhDgnYYryQU4uS71ZxFu\",\"restrictions\":null,\"name\":\"\u30ae\u30bf\u30fc\u3068\u5b64\u72ec\u3068\u84bc\u3044\u60d1\u661f\",\"popularity\":54,\"preview_url\":\"https://p.scdn.co/mp3-preview/a9295d52b6afffcb197bbe7df875217ab868be74?cid=599d5c355ead41b6b6b8b958bee6c56c\",\"track_number\":1,\"type\":\"track\",\"uri\":\"spotify:track:17rhDgnYYryQU4uS71ZxFu\",\"is_local\":false},{\"album\":{\"album_type\":\"album\",\"total_tracks\":10,\"available_markets\":[\"AR\",\"AU\",\"AT\",\"BE\",\"BO\",\"BR\",\"BG\",\"CA\",\"CL\",\"CO\",\"CR\",\"CY\",\"CZ\",\"DK\",\"DO\",\"DE\",\"EC\",\"EE\",\"SV\",\"FI\",\"FR\",\"GR\",\"GT\",\"HN\",\"HK\",\"HU\",\"IS\",\"IE\",\"IT\",\"LV\",\"LT\",\"LU\",\"MY\",\"MT\",\"MX\",\"NL\",\"NZ\",\"NI\",\"NO\",\"PA\",\"PY\",\"PE\",\"PH\",\"PL\",\"PT\",\"SG\",\"SK\",\"ES\",\"SE\",\"CH\",\"TW\",\"TR\",\"UY\",\"US\",\"GB\",\"AD\",\"LI\",\"MC\",\"ID\",\"JP\",\"TH\",\"VN\",\"RO\",\"IL\",\"ZA\",\"SA\",\"AE\",\"BH\",\"QA\",\"OM\",\"KW\",\"EG\",\"MA\",\"DZ\",\"TN\",\"LB\",\"JO\",\"PS\",\"IN\",\"BY\",\"KZ\",\"MD\",\"UA\",\"AL\",\"BA\",\"HR\",\"ME\",\"MK\",\"RS\",\"SI\",\"KR\",\"BD\",\"PK\",\"LK\",\"GH\",\"KE\",\"NG\",\"TZ\",\"UG\",\"AG\",\"AM\",\"BS\",\"BB\",\"BZ\",\"BT\",\"BW\",\"BF\",\"CV\",\"CW\",\"DM\",\"FJ\",\"GM\",\"GE\",\"GD\",\"GW\",\"GY\",\"HT\",\"JM\",\"KI\",\"LS\",\"LR\",\"MW\",\"MV\",\"ML\",\"MH\",\"FM\",\"NA\",\"NR\",\"NE\",\"PW\",\"PG\",\"PR\",\"WS\",\"SM\",\"ST\",\"SN\",\"SC\",\"SL\",\"SB\",\"KN\",\"LC\",\"VC\",\"SR\",\"TL\",\"TO\",\"TT\",\"TV\",\"VU\",\"AZ\",\"BN\",\"BI\",\"KH\",\"CM\",\"TD\",\"KM\",\"GQ\",\"SZ\",\"GA\",\"GN\",\"KG\",\"LA\",\"MO\",\"MR\",\"MN\",\"NP\",\"RW\",\"TG\",\"UZ\",\"ZW\",\"BJ\",\"MG\",\"MU\",\"MZ\",\"AO\",\"CI\",\"DJ\",\"ZM\",\"CD\",\"CG\",\"IQ\",\"LY\",\"TJ\",\"VE\",\"ET\",\"XK\"],\"external_urls\":{\"spotify\":\"https://open.spotify.com/album/23fQq42vHYv06V092CRhqd\"},\"href\":\"https://api.spotify.com/v1/albums/23fQq42vHYv06V092CRhqd\",\"id\":\"23fQq42vHYv06V092CRhqd\",\"images\":[{\"url\":\"https://i.scdn.co/image/ab67616d0000b27319fcce563bf48d570b7d4c47\",\"height\":640,\"width\":640},{\"url\":\"https://i.scdn.co/image/ab67616d00001e0219fcce563bf48d570b7d4c47\",\"height\":300,\"width\":300},{\"url\":\"https://i.scdn.co/image/ab67616d0000485119fcce563bf48d570b7d4c47\",\"height\":64,\"width\":64}],\"name\":\"Everything All at Once\",\"release_date\":\"2017-09-29\",\"release_date_precision\":\"day\",\"restrictions\":null,\"type\":\"album\",\"uri\":\"spotify:album:23fQq42vHYv06V092CRhqd\",\"artists\":[{\"external_urls\":{\"spotify\":\"https://open.spotify.com/artist/2KDObp0EG4Y1zruvbvFOT3\"},\"href\":\"https://api.spotify.com/v1/artists/2KDObp0EG4Y1zruvbvFOT3\",\"id\":\"2KDObp0EG4Y1zruvbvFOT3\",\"name\":\"Sea in the Sky\",\"type\":\"artist\",\"uri\":\"spotify:artist:2KDObp0EG4Y1zruvbvFOT3\"}]},\"artists\":[{\"external_urls\":{\"spotify\":\"https://open.spotify.com/artist/2KDObp0EG4Y1zruvbvFOT3\"},\"href\":\"https://api.spotify.com/v1/artists/2KDObp0EG4Y1zruvbvFOT3\",\"id\":\"2KDObp0EG4Y1zruvbvFOT3\",\"name\":\"Sea in the Sky\",\"type\":\"artist\",\"uri\":\"spotify:artist:2KDObp0EG4Y1zruvbvFOT3\"}],\"available_markets\":[\"AR\",\"AU\",\"AT\",\"BE\",\"BO\",\"BR\",\"BG\",\"CA\",\"CL\",\"CO\",\"CR\",\"CY\",\"CZ\",\"DK\",\"DO\",\"DE\",\"EC\",\"EE\",\"SV\",\"FI\",\"FR\",\"GR\",\"GT\",\"HN\",\"HK\",\"HU\",\"IS\",\"IE\",\"IT\",\"LV\",\"LT\",\"LU\",\"MY\",\"MT\",\"MX\",\"NL\",\"NZ\",\"NI\",\"NO\",\"PA\",\"PY\",\"PE\",\"PH\",\"PL\",\"PT\",\"SG\",\"SK\",\"ES\",\"SE\",\"CH\",\"TW\",\"TR\",\"UY\",\"US\",\"GB\",\"AD\",\"LI\",\"MC\",\"ID\",\"JP\",\"TH\",\"VN\",\"RO\",\"IL\",\"ZA\",\"SA\",\"AE\",\"BH\",\"QA\",\"OM\",\"KW\",\"EG\",\"MA\",\"DZ\",\"TN\",\"LB\",\"JO\",\"PS\",\"IN\",\"BY\",\"KZ\",\"MD\",\"UA\",\"AL\",\"BA\",\"HR\",\"ME\",\"MK\",\"RS\",\"SI\",\"KR\",\"BD\",\"PK\",\"LK\",\"GH\",\"KE\",\"NG\",\"TZ\",\"UG\",\"AG\",\"AM\",\"BS\",\"BB\",\"BZ\",\"BT\",\"BW\",\"BF\",\"CV\",\"CW\",\"DM\",\"FJ\",\"GM\",\"GE\",\"GD\",\"GW\",\"GY\",\"HT\",\"JM\",\"KI\",\"LS\",\"LR\",\"MW\",\"MV\",\"ML\",\"MH\",\"FM\",\"NA\",\"NR\",\"NE\",\"PW\",\"PG\",\"PR\",\"WS\",\"SM\",\"ST\",\"SN\",\"SC\",\"SL\",\"SB\",\"KN\",\"LC\",\"VC\",\"SR\",\"TL\",\"TO\",\"TT\",\"TV\",\"VU\",\"AZ\",\"BN\",\"BI\",\"KH\",\"CM\",\"TD\",\"KM\",\"GQ\",\"SZ\",\"GA\",\"GN\",\"KG\",\"LA\",\"MO\",\"MR\",\"MN\",\"NP\",\"RW\",\"TG\",\"UZ\",\"ZW\",\"BJ\",\"MG\",\"MU\",\"MZ\",\"AO\",\"CI\",\"DJ\",\"ZM\",\"CD\",\"CG\",\"IQ\",\"LY\",\"TJ\",\"VE\",\"ET\",\"XK\"],\"disc_number\":1,\"duration_ms\":318112,\"explicit\":false,\"external_ids\":{\"isrc\":\"ushm81723484\"},\"external_urls\":{\"spotify\":\"https://open.spotify.com/track/2WA0LYyNcUuBtww3ck2zql\"},\"href\":\"https://api.spotify.com/v1/tracks/2WA0LYyNcUuBtww3ck2zql\",\"id\":\"2WA0LYyNcUuBtww3ck2zql\",\"restrictions\":null,\"name\":\"Dreamer\",\"popularity\":31,\"preview_url\":\"https://p.scdn.co/mp3-preview/9ce669312bb6db8e6808d8c669a3f880cb5dbe90?cid=599d5c355ead41b6b6b8b958bee6c56c\",\"track_number\":1,\"type\":\"track\",\"uri\":\"spotify:track:2WA0LYyNcUuBtww3ck2zql\",\"is_local\":false},{\"album\":{\"album_type\":\"album\",\"total_tracks\":7,\"available_markets\":[\"AR\",\"AT\",\"BE\",\"BO\",\"BR\",\"BG\",\"CA\",\"CL\",\"CO\",\"CR\",\"CY\",\"CZ\",\"DK\",\"DO\",\"DE\",\"EC\",\"EE\",\"SV\",\"FI\",\"FR\",\"GR\",\"GT\",\"HN\",\"HU\",\"IS\",\"IE\",\"IT\",\"LV\",\"LT\",\"LU\",\"MT\",\"MX\",\"NL\",\"NI\",\"NO\",\"PA\",\"PY\",\"PE\",\"PL\",\"PT\",\"SK\",\"ES\",\"SE\",\"CH\",\"TR\",\"UY\",\"US\",\"GB\",\"AD\",\"LI\",\"MC\",\"RO\",\"IL\",\"ZA\",\"EG\",\"MA\",\"DZ\",\"TN\",\"BY\",\"KZ\",\"MD\",\"UA\",\"AL\",\"BA\",\"HR\",\"ME\",\"MK\",\"RS\",\"SI\",\"GH\",\"KE\",\"NG\",\"TZ\",\"UG\",\"AG\",\"AM\",\"BS\",\"BB\",\"BZ\",\"BW\",\"BF\",\"CV\",\"CW\",\"DM\",\"GM\",\"GE\",\"GD\",\"GW\",\"GY\",\"HT\",\"JM\",\"LS\",\"LR\",\"MW\",\"ML\",\"NA\",\"NE\",\"PR\",\"SM\",\"ST\",\"SN\",\"SC\",\"SL\",\"KN\",\"LC\",\"VC\",\"SR\",\"TT\",\"BI\",\"CM\",\"TD\",\"KM\",\"GQ\",\"SZ\",\"GA\",\"GN\",\"KG\",\"MR\",\"MN\",\"RW\",\"TG\",\"UZ\",\"ZW\",\"BJ\",\"MG\",\"MU\",\"MZ\",\"AO\",\"CI\",\"DJ\",\"ZM\",\"CD\",\"CG\",\"LY\",\"TJ\",\"VE\",\"ET\",\"XK\"],\"external_urls\":{\"spotify\":\"https://open.spotify.com/album/0SwaDAEsaQynnwdlNa5SH6\"},\"href\":\"https://api.spotify.com/v1/albums/0SwaDAEsaQynnwdlNa5SH6\",\"id\":\"0SwaDAEsaQynnwdlNa5SH6\",\"images\":[{\"url\":\"https://i.scdn.co/image/ab67616d0000b273f13945c6446bb6504d08272b\",\"height\":640,\"width\":640},{\"url\":\"https://i.scdn.co/image/ab67616d00001e02f13945c6446bb6504d08272b\",\"height\":300,\"width\":300},{\"url\":\"https://i.scdn.co/image/ab67616d00004851f13945c6446bb6504d08272b\",\"height\":64,\"width\":64}],\"name\":\"Sonder\",\"release_date\":\"2018-04-20\",\"release_date_precision\":\"day\",\"restrictions\":null,\"type\":\"album\",\"uri\":\"spotify:album:0SwaDAEsaQynnwdlNa5SH6\",\"artists\":[{\"external_urls\":{\"spotify\":\"https://open.spotify.com/artist/23ytwhG1pzX6DIVWRWvW1r\"},\"href\":\"https://api.spotify.com/v1/artists/23ytwhG1pzX6DIVWRWvW1r\",\"id\":\"23ytwhG1pzX6DIVWRWvW1r\",\"name\":\"TesseracT\",\"type\":\"artist\",\"uri\":\"spotify:artist:23ytwhG1pzX6DIVWRWvW1r\"}]},\"artists\":[{\"external_urls\":{\"spotify\":\"https://open.spotify.com/artist/23ytwhG1pzX6DIVWRWvW1r\"},\"href\":\"https://api.spotify.com/v1/artists/23ytwhG1pzX6DIVWRWvW1r\",\"id\":\"23ytwhG1pzX6DIVWRWvW1r\",\"name\":\"TesseracT\",\"type\":\"artist\",\"uri\":\"spotify:artist:23ytwhG1pzX6DIVWRWvW1r\"}],\"available_markets\":[\"AR\",\"AT\",\"BE\",\"BO\",\"BR\",\"BG\",\"CA\",\"CL\",\"CO\",\"CR\",\"CY\",\"CZ\",\"DK\",\"DO\",\"DE\",\"EC\",\"EE\",\"SV\",\"FI\",\"FR\",\"GR\",\"GT\",\"HN\",\"HU\",\"IS\",\"IE\",\"IT\",\"LV\",\"LT\",\"LU\",\"MT\",\"MX\",\"NL\",\"NI\",\"NO\",\"PA\",\"PY\",\"PE\",\"PL\",\"PT\",\"SK\",\"ES\",\"SE\",\"CH\",\"TR\",\"UY\",\"US\",\"GB\",\"AD\",\"LI\",\"MC\",\"RO\",\"IL\",\"ZA\",\"EG\",\"MA\",\"DZ\",\"TN\",\"BY\",\"KZ\",\"MD\",\"UA\",\"AL\",\"BA\",\"HR\",\"ME\",\"MK\",\"RS\",\"SI\",\"GH\",\"KE\",\"NG\",\"TZ\",\"UG\",\"AG\",\"AM\",\"BS\",\"BB\",\"BZ\",\"BW\",\"BF\",\"CV\",\"CW\",\"DM\",\"GM\",\"GE\",\"GD\",\"GW\",\"GY\",\"HT\",\"JM\",\"LS\",\"LR\",\"MW\",\"ML\",\"NA\",\"NE\",\"PR\",\"SM\",\"ST\",\"SN\",\"SC\",\"SL\",\"KN\",\"LC\",\"VC\",\"SR\",\"TT\",\"BI\",\"CM\",\"TD\",\"KM\",\"GQ\",\"SZ\",\"GA\",\"GN\",\"KG\",\"MR\",\"MN\",\"RW\",\"TG\",\"UZ\",\"ZW\",\"BJ\",\"MG\",\"MU\",\"MZ\",\"AO\",\"CI\",\"DJ\",\"ZM\",\"CD\",\"CG\",\"LY\",\"TJ\",\"VE\",\"ET\",\"XK\"],\"disc_number\":1,\"duration_ms\":312788,\"explicit\":false,\"external_ids\":{\"isrc\":\"GBCQV1800061\"},\"external_urls\":{\"spotify\":\"https://open.spotify.com/track/1xj9Mdr9jtBpRA6WqqMYbn\"},\"href\":\"https://api.spotify.com/v1/tracks/1xj9Mdr9jtBpRA6WqqMYbn\",\"id\":\"1xj9Mdr9jtBpRA6WqqMYbn\",\"restrictions\":null,\"name\":\"Juno\",\"popularity\":39,\"preview_url\":\"https://p.scdn.co/mp3-preview/2b3b38816c8a07346f2404213b6613a13a2bf547?cid=599d5c355ead41b6b6b8b958bee6c56c\",\"track_number\":4,\"type\":\"track\",\"uri\":\"spotify:track:1xj9Mdr9jtBpRA6WqqMYbn\",\"is_local\":false},{\"album\":{\"album_type\":\"single\",\"total_tracks\":1,\"available_markets\":[\"AR\",\"AU\",\"AT\",\"BE\",\"BO\",\"BR\",\"BG\",\"CA\",\"CL\",\"CO\",\"CR\",\"CY\",\"CZ\",\"DK\",\"DO\",\"DE\",\"EC\",\"EE\",\"SV\",\"FI\",\"FR\",\"GR\",\"GT\",\"HN\",\"HK\",\"HU\",\"IS\",\"IE\",\"IT\",\"LV\",\"LT\",\"LU\",\"MY\",\"MT\",\"MX\",\"NL\",\"NZ\",\"NI\",\"NO\",\"PA\",\"PY\",\"PE\",\"PH\",\"PL\",\"PT\",\"SG\",\"SK\",\"ES\",\"SE\",\"CH\",\"TW\",\"TR\",\"UY\",\"US\",\"GB\",\"AD\",\"LI\",\"MC\",\"ID\",\"JP\",\"TH\",\"VN\",\"RO\",\"IL\",\"ZA\",\"SA\",\"AE\",\"BH\",\"QA\",\"OM\",\"KW\",\"EG\",\"MA\",\"DZ\",\"TN\",\"LB\",\"JO\",\"PS\",\"IN\",\"KZ\",\"MD\",\"UA\",\"AL\",\"BA\",\"HR\",\"ME\",\"MK\",\"RS\",\"SI\",\"KR\",\"BD\",\"PK\",\"LK\",\"GH\",\"KE\",\"NG\",\"TZ\",\"UG\",\"AG\",\"AM\",\"BS\",\"BB\",\"BZ\",\"BT\",\"BW\",\"BF\",\"CV\",\"CW\",\"DM\",\"FJ\",\"GM\",\"GE\",\"GD\",\"GW\",\"GY\",\"HT\",\"JM\",\"KI\",\"LS\",\"LR\",\"MW\",\"MV\",\"ML\",\"MH\",\"FM\",\"NA\",\"NR\",\"NE\",\"PW\",\"PG\",\"WS\",\"SM\",\"ST\",\"SN\",\"SC\",\"SL\",\"SB\",\"KN\",\"LC\",\"VC\",\"SR\",\"TL\",\"TO\",\"TT\",\"TV\",\"VU\",\"AZ\",\"BN\",\"BI\",\"KH\",\"CM\",\"TD\",\"KM\",\"GQ\",\"SZ\",\"GA\",\"GN\",\"KG\",\"LA\",\"MO\",\"MR\",\"MN\",\"NP\",\"RW\",\"TG\",\"UZ\",\"ZW\",\"BJ\",\"MG\",\"MU\",\"MZ\",\"AO\",\"CI\",\"DJ\",\"ZM\",\"CD\",\"CG\",\"IQ\",\"LY\",\"TJ\",\"VE\",\"ET\",\"XK\"],\"external_urls\":{\"spotify\":\"https://open.spotify.com/album/6LnLHynWHry31Oa04O8VN5\"},\"href\":\"https://api.spotify.com/v1/albums/6LnLHynWHry31Oa04O8VN5\",\"id\":\"6LnLHynWHry31Oa04O8VN5\",\"images\":[{\"url\":\"https://i.scdn.co/image/ab67616d0000b273766ad35a25586c9a0e4d48b5\",\"height\":640,\"width\":640},{\"url\":\"https://i.scdn.co/image/ab67616d00001e02766ad35a25586c9a0e4d48b5\",\"height\":300,\"width\":300},{\"url\":\"https://i.scdn.co/image/ab67616d00004851766ad35a25586c9a0e4d48b5\",\"height\":64,\"width\":64}],\"name\":\"Viscera\",\"release_date\":\"2021-02-26\",\"release_date_precision\":\"day\",\"restrictions\":null,\"type\":\"album\",\"uri\":\"spotify:album:6LnLHynWHry31Oa04O8VN5\",\"artists\":[{\"external_urls\":{\"spotify\":\"https://open.spotify.com/artist/2i7CQcVBh2K6uOR3CH09M1\"},\"href\":\"https://api.spotify.com/v1/artists/2i7CQcVBh2K6uOR3CH09M1\",\"id\":\"2i7CQcVBh2K6uOR3CH09M1\",\"name\":\"Veil Of Maya\",\"type\":\"artist\",\"uri\":\"spotify:artist:2i7CQcVBh2K6uOR3CH09M1\"}]},\"artists\":[{\"external_urls\":{\"spotify\":\"https://open.spotify.com/artist/2i7CQcVBh2K6uOR3CH09M1\"},\"href\":\"https://api.spotify.com/v1/artists/2i7CQcVBh2K6uOR3CH09M1\",\"id\":\"2i7CQcVBh2K6uOR3CH09M1\",\"name\":\"Veil Of Maya\",\"type\":\"artist\",\"uri\":\"spotify:artist:2i7CQcVBh2K6uOR3CH09M1\"}],\"available_markets\":[\"AR\",\"AU\",\"AT\",\"BE\",\"BO\",\"BR\",\"BG\",\"CA\",\"CL\",\"CO\",\"CR\",\"CY\",\"CZ\",\"DK\",\"DO\",\"DE\",\"EC\",\"EE\",\"SV\",\"FI\",\"FR\",\"GR\",\"GT\",\"HN\",\"HK\",\"HU\",\"IS\",\"IE\",\"IT\",\"LV\",\"LT\",\"LU\",\"MY\",\"MT\",\"MX\",\"NL\",\"NZ\",\"NI\",\"NO\",\"PA\",\"PY\",\"PE\",\"PH\",\"PL\",\"PT\",\"SG\",\"SK\",\"ES\",\"SE\",\"CH\",\"TW\",\"TR\",\"UY\",\"US\",\"GB\",\"AD\",\"LI\",\"MC\",\"ID\",\"JP\",\"TH\",\"VN\",\"RO\",\"IL\",\"ZA\",\"SA\",\"AE\",\"BH\",\"QA\",\"OM\",\"KW\",\"EG\",\"MA\",\"DZ\",\"TN\",\"LB\",\"JO\",\"PS\",\"IN\",\"KZ\",\"MD\",\"UA\",\"AL\",\"BA\",\"HR\",\"ME\",\"MK\",\"RS\",\"SI\",\"KR\",\"BD\",\"PK\",\"LK\",\"GH\",\"KE\",\"NG\",\"TZ\",\"UG\",\"AG\",\"AM\",\"BS\",\"BB\",\"BZ\",\"BT\",\"BW\",\"BF\",\"CV\",\"CW\",\"DM\",\"FJ\",\"GM\",\"GE\",\"GD\",\"GW\",\"GY\",\"HT\",\"JM\",\"KI\",\"LS\",\"LR\",\"MW\",\"MV\",\"ML\",\"MH\",\"FM\",\"NA\",\"NR\",\"NE\",\"PW\",\"PG\",\"WS\",\"SM\",\"ST\",\"SN\",\"SC\",\"SL\",\"SB\",\"KN\",\"LC\",\"VC\",\"SR\",\"TL\",\"TO\",\"TT\",\"TV\",\"VU\",\"AZ\",\"BN\",\"BI\",\"KH\",\"CM\",\"TD\",\"KM\",\"GQ\",\"SZ\",\"GA\",\"GN\",\"KG\",\"LA\",\"MO\",\"MR\",\"MN\",\"NP\",\"RW\",\"TG\",\"UZ\",\"ZW\",\"BJ\",\"MG\",\"MU\",\"MZ\",\"AO\",\"CI\",\"DJ\",\"ZM\",\"CD\",\"CG\",\"IQ\",\"LY\",\"TJ\",\"VE\",\"ET\",\"XK\"],\"disc_number\":1,\"duration_ms\":220000,\"explicit\":false,\"external_ids\":{\"isrc\":\"USYFZ2144501\"},\"external_urls\":{\"spotify\":\"https://open.spotify.com/track/2jMPFY1jaGEg1RnX5iHGdw\"},\"href\":\"https://api.spotify.com/v1/tracks/2jMPFY1jaGEg1RnX5iHGdw\",\"id\":\"2jMPFY1jaGEg1RnX5iHGdw\",\"restrictions\":null,\"name\":\"Viscera\",\"popularity\":39,\"preview_url\":\"https://p.scdn.co/mp3-preview/8e3e27cc81b4e37952de1a995f6e236038ea0af2?cid=599d5c355ead41b6b6b8b958bee6c56c\",\"track_number\":1,\"type\":\"track\",\"uri\":\"spotify:track:2jMPFY1jaGEg1RnX5iHGdw\",\"is_local\":false},{\"album\":{\"album_type\":\"album\",\"total_tracks\":9,\"available_markets\":[\"AR\",\"AU\",\"AT\",\"BE\",\"BO\",\"BR\",\"BG\",\"CA\",\"CL\",\"CO\",\"CR\",\"CY\",\"CZ\",\"DK\",\"DO\",\"DE\",\"EC\",\"EE\",\"SV\",\"FI\",\"FR\",\"GR\",\"GT\",\"HN\",\"HK\",\"HU\",\"IS\",\"IE\",\"IT\",\"LV\",\"LT\",\"LU\",\"MY\",\"MT\",\"MX\",\"NL\",\"NZ\",\"NI\",\"NO\",\"PA\",\"PY\",\"PE\",\"PH\",\"PL\",\"PT\",\"SG\",\"SK\",\"ES\",\"SE\",\"CH\",\"TW\",\"TR\",\"UY\",\"US\",\"GB\",\"AD\",\"LI\",\"MC\",\"ID\",\"JP\",\"TH\",\"VN\",\"RO\",\"IL\",\"ZA\",\"SA\",\"AE\",\"BH\",\"QA\",\"OM\",\"KW\",\"EG\",\"MA\",\"DZ\",\"TN\",\"LB\",\"JO\",\"PS\",\"IN\",\"BY\",\"KZ\",\"MD\",\"UA\",\"AL\",\"BA\",\"HR\",\"ME\",\"MK\",\"RS\",\"SI\",\"KR\",\"BD\",\"PK\",\"LK\",\"GH\",\"KE\",\"NG\",\"TZ\",\"UG\",\"AG\",\"AM\",\"BS\",\"BB\",\"BZ\",\"BT\",\"BW\",\"BF\",\"CV\",\"CW\",\"DM\",\"FJ\",\"GM\",\"GE\",\"GD\",\"GW\",\"GY\",\"HT\",\"JM\",\"KI\",\"LS\",\"LR\",\"MW\",\"MV\",\"ML\",\"MH\",\"FM\",\"NA\",\"NR\",\"NE\",\"PW\",\"PG\",\"PR\",\"WS\",\"SM\",\"ST\",\"SN\",\"SC\",\"SL\",\"SB\",\"KN\",\"LC\",\"VC\",\"SR\",\"TL\",\"TO\",\"TT\",\"TV\",\"VU\",\"AZ\",\"BN\",\"BI\",\"KH\",\"CM\",\"TD\",\"KM\",\"GQ\",\"SZ\",\"GA\",\"GN\",\"KG\",\"LA\",\"MO\",\"MR\",\"MN\",\"NP\",\"RW\",\"TG\",\"UZ\",\"ZW\",\"BJ\",\"MG\",\"MU\",\"MZ\",\"AO\",\"CI\",\"DJ\",\"ZM\",\"CD\",\"CG\",\"IQ\",\"LY\",\"TJ\",\"VE\",\"ET\",\"XK\"],\"external_urls\":{\"spotify\":\"https://open.spotify.com/album/1xhO0GSoezdPJcSuNe1ySv\"},\"href\":\"https://api.spotify.com/v1/albums/1xhO0GSoezdPJcSuNe1ySv\",\"id\":\"1xhO0GSoezdPJcSuNe1ySv\",\"images\":[{\"url\":\"https://i.scdn.co/image/ab67616d0000b273684d81c9356531f2a456b1c1\",\"height\":640,\"width\":640},{\"url\":\"https://i.scdn.co/image/ab67616d00001e02684d81c9356531f2a456b1c1\",\"height\":300,\"width\":300},{\"url\":\"https://i.scdn.co/image/ab67616d00004851684d81c9356531f2a456b1c1\",\"height\":64,\"width\":64}],\"name\":\"THE BOOK\",\"release_date\":\"2021-01-06\",\"release_date_precision\":\"day\",\"restrictions\":null,\"type\":\"album\",\"uri\":\"spotify:album:1xhO0GSoezdPJcSuNe1ySv\",\"artists\":[{\"external_urls\":{\"spotify\":\"https://open.spotify.com/artist/64tJ2EAv1R6UaZqc4iOCyj\"},\"href\":\"https://api.spotify.com/v1/artists/64tJ2EAv1R6UaZqc4iOCyj\",\"id\":\"64tJ2EAv1R6UaZqc4iOCyj\",\"name\":\"YOASOBI\",\"type\":\"artist\",\"uri\":\"spotify:artist:64tJ2EAv1R6UaZqc4iOCyj\"}]},\"artists\":[{\"external_urls\":{\"spotify\":\"https://open.spotify.com/artist/64tJ2EAv1R6UaZqc4iOCyj\"},\"href\":\"https://api.spotify.com/v1/artists/64tJ2EAv1R6UaZqc4iOCyj\",\"id\":\"64tJ2EAv1R6UaZqc4iOCyj\",\"name\":\"YOASOBI\",\"type\":\"artist\",\"uri\":\"spotify:artist:64tJ2EAv1R6UaZqc4iOCyj\"}],\"available_markets\":[\"AR\",\"AU\",\"AT\",\"BE\",\"BO\",\"BR\",\"BG\",\"CA\",\"CL\",\"CO\",\"CR\",\"CY\",\"CZ\",\"DK\",\"DO\",\"DE\",\"EC\",\"EE\",\"SV\",\"FI\",\"FR\",\"GR\",\"GT\",\"HN\",\"HK\",\"HU\",\"IS\",\"IE\",\"IT\",\"LV\",\"LT\",\"LU\",\"MY\",\"MT\",\"MX\",\"NL\",\"NZ\",\"NI\",\"NO\",\"PA\",\"PY\",\"PE\",\"PH\",\"PL\",\"PT\",\"SG\",\"SK\",\"ES\",\"SE\",\"CH\",\"TW\",\"TR\",\"UY\",\"US\",\"GB\",\"AD\",\"LI\",\"MC\",\"ID\",\"JP\",\"TH\",\"VN\",\"RO\",\"IL\",\"ZA\",\"SA\",\"AE\",\"BH\",\"QA\",\"OM\",\"KW\",\"EG\",\"MA\",\"DZ\",\"TN\",\"LB\",\"JO\",\"PS\",\"IN\",\"BY\",\"KZ\",\"MD\",\"UA\",\"AL\",\"BA\",\"HR\",\"ME\",\"MK\",\"RS\",\"SI\",\"KR\",\"BD\",\"PK\",\"LK\",\"GH\",\"KE\",\"NG\",\"TZ\",\"UG\",\"AG\",\"AM\",\"BS\",\"BB\",\"BZ\",\"BT\",\"BW\",\"BF\",\"CV\",\"CW\",\"DM\",\"FJ\",\"GM\",\"GE\",\"GD\",\"GW\",\"GY\",\"HT\",\"JM\",\"KI\",\"LS\",\"LR\",\"MW\",\"MV\",\"ML\",\"MH\",\"FM\",\"NA\",\"NR\",\"NE\",\"PW\",\"PG\",\"PR\",\"WS\",\"SM\",\"ST\",\"SN\",\"SC\",\"SL\",\"SB\",\"KN\",\"LC\",\"VC\",\"SR\",\"TL\",\"TO\",\"TT\",\"TV\",\"VU\",\"AZ\",\"BN\",\"BI\",\"KH\",\"CM\",\"TD\",\"KM\",\"GQ\",\"SZ\",\"GA\",\"GN\",\"KG\",\"LA\",\"MO\",\"MR\",\"MN\",\"NP\",\"RW\",\"TG\",\"UZ\",\"ZW\",\"BJ\",\"MG\",\"MU\",\"MZ\",\"AO\",\"CI\",\"DJ\",\"ZM\",\"CD\",\"CG\",\"IQ\",\"LY\",\"TJ\",\"VE\",\"ET\",\"XK\"],\"disc_number\":1,\"duration_ms\":258838,\"explicit\":false,\"external_ids\":{\"isrc\":\"JPP301900716\"},\"external_urls\":{\"spotify\":\"https://open.spotify.com/track/6MCjmGYlw6mQVWRFVgBRvB\"},\"href\":\"https://api.spotify.com/v1/tracks/6MCjmGYlw6mQVWRFVgBRvB\",\"id\":\"6MCjmGYlw6mQVWRFVgBRvB\",\"restrictions\":null,\"name\":\"\u591c\u306b\u99c6\u3051\u308b\",\"popularity\":70,\"preview_url\":\"https://p.scdn.co/mp3-preview/3bd133cbf1fb988c0235d0a383fffcf05f5756e8?cid=599d5c355ead41b6b6b8b958bee6c56c\",\"track_number\":8,\"type\":\"track\",\"uri\":\"spotify:track:6MCjmGYlw6mQVWRFVgBRvB\",\"is_local\":false}]}"