"{\"href\":\"https://api.spotify.com/v1/me/top/tracks?limit=5&time_range=medium_term\",\"limit\":5,\"next\":\"https://api.spotify.com/v1/me/top/tracks?offset=5&limit=5&time_range=medium_term\",\"offset\":0,\"previous\":null,\"total\":3569,\"items\":[{\"album\":{\"album_type\":\"single\",\"total_tracks\":1,\"available_markets\":[\"AR\",\"AU\",\"AT\",\"BE\",\"BO\",\"BR\",\"BG\",\"CA\",\"CL\",\"CO\",\"CR\",\"CY\",\"CZ\",\"DK\",\"DO\",\"DE\",\"EC\",\"EE\",\"SV\",\"FI\",\"FR\",\"GR\",\"GT\",\"HN\",\"HK\",\"HU\",\"IS\",\"IE\",\"IT\",\"LV\",\"LT\",\"LU\",\"MY\",\"MT\",\"MX\",\"NL\",\"NZ\",\"NI\",\"NO\",\"PA\",\"PY\",\"PE\",\"PH\",\"PL\",\"PT\",\"SG\",\"SK\",\"ES\",\"SE\",\"CH\",\"TW\",\"TR\",\"UY\",\"US\",\"GB\",\"AD\",\"LI\",\"MC\",\"ID\",\"JP\",\"TH\",\"VN\",\"RO\",\"IL\",\"ZA\",\"SA\",\"AE\",\"BH\",\"QA\",\"OM\",\"KW\",\"EG\",\"MA\",\"DZ\",\"TN\",\"LB\",\"JO\",\"PS\",\"IN\",\"KZ\",\"MD\",\"UA\",\"AL\",\"BA\",\"HR\",\"ME\",\"MK\",\"SI\",\"KR\",\"BD\",\"PK\",\"LK\",\"GH\",\"KE\",\"NG\",\"TZ\",\"UG\",\"AG\",\"AM\",\"BS\",\"BB\",\"BZ\",\"BT\",\"BW\",\"BF\",\"CV\",\"CW\",\"DM\",\"FJ\",\"GM\",\"GE\",\"GD\",\"GW\",\"GY\",\"HT\",\"JM\",\"KI\",\"LS\",\"LR\",\"MW\",\"MV\",\"ML\",\"MH\",\"FM\",\"NA\",\"NR\",\"NE\",\"PW\",\"PG\",\"PR\",\"WS\",\"SM\",\"ST\",\"SN\",\"SC\",\"SL\",\"SB\",\"KN\",\"LC\",\"VC\",\"SR\",\"TL\",\"TO\",\"TT\",\"TV\",\"VU\",\"AZ\",\"BN\",\"KH\",\"CM\",\"TD\",\"KM\",\"GQ\",\"SZ\",\"GA\",\"GN\",\"KG\",\"LA\",\"MO\",\"MR\",\"MN\",\"NP\",\"RW\",\"TG\",\"UZ\",\"BJ\",\"MG\",\"MU\",\"MZ\",\"AO\",\"DJ\",\"ZM\",\"CG\",\"TJ\",\"VE\",\"ET\"],\"external_urls\":{\"spotify\":\"https://open.spotify.com/album/2JX4vg1Djg86SC834Qitom\"},\"href\":\"https://api.spotify.com/v1/albums/2JX4vg1Djg86SC834Qitom\",\"id\":\"2JX4vg1Djg86SC834Qitom\",\"images\":[{\"url\":\"https://i.scdn.co/image/ab67616d0000b273057effcb9e43584824af9304\",\"height\":640,\"width\":640},{\"url\":\"https://i.scdn.co/image/ab67616d00001e02057effcb9e43584824af9304\",\"height\":300,\"width\":300},{\"url\":\"https://i.scdn.co/image/ab67616d00004851057effcb9e43584824af9304\",\"height\":64,\"width\":64}],\"name\":\"Deleto\",\"release_date\":\"2019-02-28\",\"release_date_precision\":\"day\",\"restrictions\":null,\"type\":\"album\",\"uri\":\"spotify:album:2JX4vg1Djg86SC834Qitom\",\"artists\":[{\"external_urls\":{\"spotify\":\"https://open.spotify.com/artist/7DHLWUbPofoFR1yRFfgL5a\"},\"href\":\"https://api.spotify.com/v1/artists/7DHLWUbPofoFR1yRFfgL5a\",\"id\":\"7DHLWUbPofoFR1yRFfgL5a\",\"name\":\"Wolf & Bear\",\"type\":\"artist\",\"uri\":\"spotify:artist:7DHLWUbPofoFR1yRFfgL5a\"}]},\"artists\":[{\"external_urls\":{\"spotify\":\"https://open.spotify.com/artist/7DHLWUbPofoFR1yRFfgL5a\"},\"href\":\"https://api.spotify.com/v1/artists/7DHLWUbPofoFR1yRFfgL5a\",\"id\":\"7DHLWUbPofoFR1yRFfgL5a\",\"name\":\"Wolf & Bear\",\"type\":\"artist\",\"uri\":\"spotify:artist:7DHLWUbPofoFR1yRFfgL5a\"}],\"available_markets\":[\"AR\",\"AU\",\"AT\",\"BE\",\"BO\",\"BR\",\"BG\",\"CA\",\"CL\",\"CO\",\"CR\",\"CY\",\"CZ\",\"DK\",\"DO\",\"DE\",\"EC\",\"EE\",\"SV\",\"FI\",\"FR\",\"GR\",\"GT\",\"HN\",\"HK\",\"HU\",\"IS\",\"IE\",\"IT\",\"LV\",\"LT\",\"LU\",\"MY\",\"MT\",\"MX\",\"NL\",\"NZ\",\"NI\",\"NO\",\"PA\",\"PY\",\"PE\",\"PH\",\"PL\",\"PT\",\"SG\",\"SK\",\"ES\",\"SE\",\"CH\",\"TW\",\"TR\",\"UY\",\"US\",\"GB\",\"AD\",\"LI\",\"MC\",\"ID\",\"JP\",\"TH\",\"VN\",\"RO\",\"IL\",\"ZA\",\"SA\",\"AE\",\"BH\",\"QA\",\"OM\",\"KW\",\"EG\",\"MA\",\"DZ\",\"TN\",\"LB\",\"JO\",\"PS\",\"IN\",\"KZ\",\"MD\",\"UA\",\"AL\",\"BA\",\"HR\",\"ME\",\"MK\",\"SI\",\"KR\",\"BD\",\"PK\",\"LK\",\"GH\",\"KE\",\"NG\",\"TZ\",\"UG\",\"AG\",\"AM\",\"BS\",\"BB\",\"BZ\",\"BT\",\"BW\",\"BF\",\"CV\",\"CW\",\"DM\",\"FJ\",\"GM\",\"GE\",\"GD\",\"GW\",\"GY\",\"HT\",\"JM\",\"KI\",\"LS\",\"LR\",\"MW\",\"MV\",\"ML\",\"MH\",\"FM\",\"NA\",\"NR\",\"NE\",\"PW\",\"PG\",\"PR\",\"WS\",\"SM\",\"ST\",\"SN\",\"SC\",\"SL\",\"SB\",\"KN\",\"LC\",\"VC\",\"SR\",\"TL\",\"TO\",\"TT\",\"TV\",\"VU\",\"AZ\",\"BN\",\"KH\",\"CM\",\"TD\",\"KM\",\"GQ\",\"SZ\",\"GA\",\"GN\",\"KG\",\"LA\",\"MO\",\"MR\",\"MN\",\"NP\",\"RW\",\"TG\",\"UZ\",\"BJ\",\"MG\",\"MU\",\"MZ\",\"AO\",\"DJ\",\"ZM\",\"CG\",\"TJ\",\"VE\",\"ET\"],\"disc_number\":1,\"duration_ms\":167225,\"explicit\":false,\"external_ids\":{\"isrc\":\"TCAEC1926524\"},\"external_urls\":{\"spotify\":\"https://open.spotify.com/track/4rc45cTk7L655TbYsUGUGu\"},\"href\":\"https://api.spotify.com/v1/tracks/4rc45cTk7L655TbYsUGUGu\",\"id\":\"4rc45cTk7L655TbYsUGUGu\",\"restrictions\":null,\"name\":\"Deleto\",\"popularity\":48,\"preview_url\":\"https://p.scdn.co/mp3-preview/272e1aefa456e82bbd3074b37533cad2c53a53eb?cid=599d5c355ead41b6b6b8b958bee6c56c\",\"track_number\":1,\"type\":\"track\",\"uri\":\"spotify:track:4rc45cTk7L655TbYsUGUGu\",\"is_local\":false},{\"album\":{\"album_type\":\"album\",\"total_tracks\":8,\"available_markets\":[\"AR\",\"AU\",\"AT\",\"BE\",\"BO\",\"BR\",\"BG\",\"CA\",\"CL\",\"CO\",\"CR\",\"CY\",\"CZ\",\"DK\",\"DO\",\"DE\",\"EC\",\"EE\",\"SV\",\"FI\",\"FR\",\"GR\",\"GT\",\"HN\",\"HK\",\"HU\",\"IS\",\"IE\",\"IT\",\"LV\",\"LT\",\"LU\",\"MY\",\"MT\",\"MX\",\"NL\",\"NZ\",\"NI\",\"NO\",\"PA\",\"PY\",\"PE\",\"PH\",\"PL\",\"PT\",\"SG\",\"SK\",\"ES\",\"SE\",\"CH\",\"TW\",\"TR\",\"UY\",\"US\",\"GB\",\"AD\",\"LI\",\"MC\",\"ID\",\"JP\",\"TH\",\"VN\",\"RO\",\"IL\",\"ZA\",\"SA\",\"AE\",\"BH\",\"QA\",\"OM\",\"KW\",\"EG\",\"MA\",\"DZ\",\"TN\",\"LB\",\"JO\",\"PS\",\"IN\",\"BY\",\"KZ\",\"MD\",\"UA\",\"AL\",\"BA\",\"HR\",\"ME\",\"MK\",\"RS\",\"SI\",\"KR\",\"BD\",\"PK\",\"LK\",\"GH\",\"KE\",\"NG\",\"TZ\",\"UG\",\"AG\",\"AM\",\"BS\",\"BB\",\"BZ\",\"BT\",\"BW\",\"BF\",\"CV\",\"CW\",\"DM\",\"FJ\",\"GM\",\"GE\",\"GD\",\"GW\",\"GY\",\"HT\",\"JM\",\"KI\",\"LS\",\"LR\",\"MW\",\"MV\",\"ML\",\"MH\",\"FM\",\"NA\",\"NR\",\"NE\",\"PW\",\"PG\",\"PR\",\"WS\",\"SM\",\"ST\",\"SN\",\"SC\",\"SL\",\"SB\",\"KN\",\"LC\",\"VC\",\"SR\",\"TL\",\"TO\",\"TT\",\"TV\",\"VU\",\"AZ\",\"BN\",\"BI\",\"KH\",\"CM\",\"TD\",\"KM\",\"GQ\",\"SZ\",\"GA\",\"GN\",\"KG\",\"LA\",\"MO\",\"MR\",\"MN\",\"NP\",\"RW\",\"TG\",\"UZ\",\"ZW\",\"BJ\",\"MG\",\"MU\",\"MZ\",\"AO\",\"CI\",\"DJ\",\"ZM\",\"CD\",\"CG\",\"IQ\",\"LY\",\"TJ\",\"VE\",\"ET\",\"XK\"],\"external_urls\":{\"spotify\":\"https://open.spotify.com/album/0uF7LYXx0mDrWeMxZ3vRkz\"},\"href\":\"https://api.spotify.com/v1/albums/0uF7LYXx0mDrWeMxZ3vRkz\",\"id\":\"0uF7LYXx0mDrWeMxZ3vRkz\",\"images\":[{\"url\":\"https://i.scdn.co/image/ab67616d0000b2730735b9b1d06b65bbd8814825\",\"height\":640,\"width\":640},{\"url\":\"https://i.scdn.co/image/ab67616d00001e020735b9b1d06b65bbd8814825\",\"height\":300,\"width\":300},{\"url\":\"https://i.scdn.co/image/ab67616d000048510735b9b1d06b65bbd8814825\",\"height\":64,\"width\":64}],\"name\":\"Milk\",\"release_date\":\"2015-02-25\",\"release_date_precision\":\"day\",\"restrictions\":null,\"type\":\"album\",\"uri\":\"spotify:album:0uF7LYXx0mDrWeMxZ3vRkz\",\"artists\":[{\"external_urls\":{\"spotify\":\"https://open.spotify.com/artist/7BzEKSgHp2yrNC6w5NkFhQ\"},\"href\":\"https://api.spotify.com/v1/artists/7BzEKSgHp2yrNC6w5NkFhQ\",\"id\":\"7BzEKSgHp2yrNC6w5NkFhQ\",\"name\":\"Goose house\",\"type\":\"artist\",\"uri\":\"spotify:artist:7BzEKSgHp2yrNC6w5NkFhQ\"}]},\"artists\":[{\"external_urls\":{\"spotify\":\"https://open.spotify.com/artist/7BzEKSgHp2yrNC6w5NkFhQ\"},\"href\":\"https://api.spotify.com/v1/artists/7BzEKSgHp2yrNC6w5NkFhQ\",\"id\":\"7BzEKSgHp2yrNC6w5NkFhQ\",\"name\":\"Goose house\",\"type\":\"artist\",\"uri\":\"spotify:artist:7BzEKSgHp2yrNC6w5NkFhQ\"}],\"available_markets\":[\"AR\",\"AU\",\"AT\",\"BE\",\"BO\",\"BR\",\"BG\",\"CA\",\"CL\",\"CO\",\"CR\",\"CY\",\"CZ\",\"DK\",\"DO\",\"DE\",\"EC\",\"EE\",\"SV\",\"FI\",\"FR\",\"GR\",\"GT\",\"HN\",\"HK\",\"HU\",\"IS\",\"IE\",\"IT\",\"LV\",\"LT\",\"LU\",\"MY\",\"MT\",\"MX\",\"NL\",\"NZ\",\"NI\",\"NO\",\"PA\",\"PY\",\"PE\",\"PH\",\"PL\",\"PT\",\"SG\",\"SK\",\"ES\",\"SE\",\"CH\",\"TW\",\"TR\",\"UY\",\"US\",\"GB\",\"AD\",\"LI\",\"MC\",\"ID\",\"JP\",\"TH\",\"VN\",\"RO\",\"IL\",\"ZA\",\"SA\",\"AE\",\"BH\",\"QA\",\"OM\",\"KW\",\"EG\",\"MA\",\"DZ\",\"TN\",\"LB\",\"JO\",\"PS\",\"IN\",\"BY\",\"KZ\",\"MD\",\"UA\",\"AL\",\"BA\",\"HR\",\"ME\",\"MK\",\"RS\",\"SI\",\"KR\",\"BD\",\"PK\",\"LK\",\"GH\",\"KE\",\"NG\",\"TZ\",\"UG\",\"AG\",\"AM\",\"BS\",\"BB\",\"BZ\",\"BT\",\"BW\",\"BF\",\"CV\",\"CW\",\"DM\",\"FJ\",\"GM\",\"GE\",\"GD\",\"GW\",\"GY\",\"HT\",\"JM\",\"KI\",\"LS\",\"LR\",\"MW\",\"MV\",\"ML\",\"MH\",\"FM\",\"NA\",\"NR\",\"NE\",\"PW\",\"PG\",\"PR\",\"WS\",\"SM\",\"ST\",\"SN\",\"SC\",\"SL\",\"SB\",\"KN\",\"LC\",\"VC\",\"SR\",\"TL\",\"TO\",\"TT\",\"TV\",\"VU\",\"AZ\",\"BN\",\"BI\",\"KH\",\"CM\",\"TD\",\"KM\",\"GQ\",\"SZ\",\"GA\",\"GN\",\"KG\",\"LA\",\"MO\",\"MR\",\"MN\",\"NP\",\"RW\",\"TG\",\"UZ\",\"ZW\",\"BJ\",\"MG\",\"MU\",\"MZ\",\"AO\",\"CI\",\"DJ\",\"ZM\",\"CD\",\"CG\",\"IQ\",\"LY\",\"TJ\",\"VE\",\"ET\",\"XK\"],\"disc_number\":1,\"duration_ms\":252133,\"explicit\":false,\"external_ids\":{\"isrc\":\"JPU901401919\"},\"external_urls\":{\"spotify\":\"https://open.spotify.com/track/2BlDX1yfT0ea5wo0vjCKKa\"},\"href\":\"https://api.spotify.com/v1/tracks/2BlDX1yfT0ea5wo0vjCKKa\",\"id\":\"2BlDX1yfT0ea5wo0vjCKKa\",\"restrictions\":null,\"name\":\"\u5149\u308b\u306a\u3089\",\"popularity\":65,\"preview_url\":\"https://p.scdn.co/mp3-preview/66c5053185d9b80474d196be7e54ebc0b6d60d90?cid=599d5c355ead41b6b6b8b958bee6c56c\",\"track_number\":1,\"type\":\"track\",\"uri\":\"spotify:track:2BlDX1yfT0ea5wo0vjCKKa\",\"is_local\":false},{\"album\":{\"album_type\":\"single\",\"total_tracks\":1,\"available_markets\":[\"AR\",\"AU\",\"AT\",\"BE\",\"BO\",\"BR\",\"BG\",\"CA\",\"CL\",\"CO\",\"CR\",\"CY\",\"CZ\",\"DK\",\"DO\",\"DE\",\"EC\",\"EE\",\"SV\",\"FI\",\"FR\",\"GR\",\"GT\",\"HN\",\"HK\",\"HU\",\"IS\",\"IE\",\"IT\",\"LV\",\"LT\",\"LU\",\"MY\",\"MT\",\"MX\",\"NL\",\"NZ\",\"NI\",\"NO\",\"PA\",\"PY\",\"PE\",\"PH\",\"PL\",\"PT\",\"SG\",\"SK\",\"ES\",\"SE\",\"CH\",\"TW\",\"TR\",\"UY\",\"US\",\"GB\",\"AD\",\"LI\",\"MC\",\"ID\",\"JP\",\"TH\",\"VN\",\"RO\",\"IL\",\"ZA\",\"SA\",\"AE\",\"BH\",\"QA\",\"OM\",\"KW\",\"EG\",\"MA\",\"DZ\",\"TN\",\"LB\",\"JO\",\"PS\",\"IN\",\"BY\",\"KZ\",\"MD\",\"UA\",\"AL\",\"BA\",\"HR\",\"ME\",\"MK\",\"RS\",\"SI\",\"KR\",\"BD\",\"PK\",\"LK\",\"GH\",\"KE\",\"NG\",\"TZ\",\"UG\",\"AG\",\"AM\",\"BS\",\"BB\",\"BZ\",\"BT\",\"BW\",\"BF\",\"CV\",\"CW\",\"DM\",\"FJ\",\"GM\",\"GE\",\"GD\",\"GW\",\"GY\",\"HT\",\"JM\",\"KI\",\"LS\",\"LR\",\"MW\",\"MV\",\"ML\",\"MH\",\"FM\",\"NA\",\"NR\",\"NE\",\"PW\",\"PG\",\"PR\",\"WS\",\"SM\",\"ST\",\"SN\",\"SC\",\"SL\",\"SB\",\"KN\",\"LC\",\"VC\",\"SR\",\"TL\",\"TO\",\"TT\",\"TV\",\"VU\",\"AZ\",\"BN\",\"BI\",\"KH\",\"CM\",\"TD\",\"KM\",\"GQ\",\"SZ\",\"GA\",\"GN\",\"KG\",\"LA\",\"MO\",\"MR\",\"MN\",\"NP\",\"RW\",\"TG\",\"UZ\",\"ZW\",\"BJ\",\"MG\",\"MU\",\"MZ\",\"AO\",\"CI\",\"DJ\",\"ZM\",\"CD\",\"CG\",\"IQ\",\"LY\",\"TJ\",\"VE\",\"ET\",\"XK\"],\"external_urls\":{\"spotify\":\"https://open.spotify.com/album/7gGOcKwSX3Kfvfwcqa8e23\"},\"href\":\"https://api.spotify.com/v1/albums/7gGOcKwSX3Kfvfwcqa8e23\",\"id\":\"7gGOcKwSX3Kfvfwcqa8e23\",\"images\":[{\"url\":\"https://i.scdn.co/image/ab67616d0000b273c9dfa24adebda9b8b6ae544d\",\"height\":640,\"width\":640},{\"url\":\"https://i.scdn.co/image/ab67616d00001e02c9dfa24adebda9b8b6ae544d\",\"height\":300,\"width\":300},{\"url\":\"https://i.scdn.co/image/ab67616d00004851c9dfa24adebda9b8b6ae544d\",\"height\":64,\"width\":64}],\"name\":\"Even If\",\"release_date\":\"2022-01-14\",\"release_date_precision\":\"day\",\"restrictions\":null,\"type\":\"album\",\"uri\":\"spotify:album:7gGOcKwSX3Kfvfwcqa8e23\",\"artists\":[{\"external_urls\":{\"spotify\":\"https://open.spotify.com/artist/6xG7V5GWf6QWQu1EFL3WJ8\"},\"href\":\"https://api.spotify.com/v1/artists/6xG7V5GWf6QWQu1EFL3WJ8\",\"id\":\"6xG7V5GWf6QWQu1EFL3WJ8\",\"name\":\"Royal Coda\",\"type\":\"artist\",\"uri\":\"spotify:artist:6xG7V5GWf6QWQu1EFL3WJ8\"}]},\"artists\":[{\"external_urls\":{\"spotify\":\"https://open.spotify.com/artist/6xG7V5GWf6QWQu1EFL3WJ8\"},\"href\":\"https://api.spotify.com/v1/artists/6xG7V5GWf6QWQu1EFL3WJ8\",\"id\":\"6xG7V5GWf6QWQu1EFL3WJ8\",\"name\":\"Royal Coda\",\"type\":\"artist\",\"uri\":\"spotify:artist:6xG7V5GWf6QWQu1EFL3WJ8\"}],\"available_markets\":[\"AR\",\"AU\",\"AT\",\"BE\",\"BO\",\"BR\",\"BG\",\"CA\",\"CL\",\"CO\",\"CR\",\"CY\",\"CZ\",\"DK\",\"DO\",\"DE\",\"EC\",\"EE\",\"SV\",\"FI\",\"FR\",\"GR\",\"GT\",\"HN\",\"HK\",\"HU\",\"IS\",\"IE\",\"IT\",\"LV\",\"LT\",\"LU\",\"MY\",\"MT\",\"MX\",\"NL\",\"NZ\",\"NI\",\"NO\",\"PA\",\"PY\",\"PE\",\"PH\",\"PL\",\"PT\",\"SG\",\"SK\",\"ES\",\"SE\",\"CH\",\"TW\",\"TR\",\"UY\",\"US\",\"GB\",\"AD\",\"LI\",\"MC\",\"ID\",\"JP\",\"TH\",\"VN\",\"RO\",\"IL\",\"ZA\",\"SA\",\"AE\",\"BH\",\"QA\",\"OM\",\"KW\",\"EG\",\"MA\",\"DZ\",\"TN\",\"LB\",\"JO\",\"PS\",\"IN\",\"BY\",\"KZ\",\"MD\",\"UA\",\"AL\",\"BA\",\"HR\",\"ME\",\"MK\",\"RS\",\"SI\",\"KR\",\"BD\",\"PK\",\"LK\",\"GH\",\"KE\",\"NG\",\"TZ\",\"UG\",\"AG\",\"AM\",\"BS\",\"BB\",\"BZ\",\"BT\",\"BW\",\"BF\",\"CV\",\"CW\",\"DM\",\"FJ\",\"GM\",\"GE\",\"GD\",\"GW\",\"GY\",\"HT\",\"JM\",\"KI\",\"LS\",\"LR\",\"MW\",\"MV\",\"ML\",\"MH\",\"FM\",\"NA\",\"NR\",\"NE\",\"PW\",\"PG\",\"PR\",\"WS\",\"SM\",\"ST\",\"SN\",\"SC\",\"SL\",\"SB\",\"KN\",\"LC\",\"VC\",\"SR\",\"TL\",\"TO\",\"TT\",\"TV\",\"VU\",\"AZ\",\"BN\",\"BI\",\"KH\",\"CM\",\"TD\",\"KM\",\"GQ\",\"SZ\",\"GA\",\"GN\",\"KG\",\"LA\",\"MO\",\"MR\",\"MN\",\"NP\",\"RW\",\"TG\",\"UZ\",\"ZW\",\"BJ\",\"MG\",\"MU\",\"MZ\",\"AO\",\"CI\",\"DJ\",\"ZM\",\"CD\",\"CG\",\"IQ\",\"LY\",\"TJ\",\"VE\",\"ET\",\"XK\"],\"disc_number\":1,\"duration_ms\":229000,\"explicit\":false,\"external_ids\":{\"isrc\":\"QMRSZ2103092\"},\"external_urls\":{\"spotify\":\"https://open.spotify.com/track/274EeI3CYpeF0RYkLrDEjI\"},\"href\":\"https://api.spotify.com/v1/tracks/274EeI3CYpeF0RYkLrDEjI\",\"id\":\"274EeI3CYpeF0RYkLrDEjI\",\"restrictions\":null,\"name\":\"Even If\",\"popularity\":34,\"preview_url\":\"https://p.scdn.co/mp3-preview/6a6e60dae5f3da2f3f15bc00a16d4b5a7828662f?cid=599d5c355ead41b6b6b8b958bee6c56c\",\"track_number\":1,\"type\":\"track\",\"uri\":\"spotify:track:274EeI3CYpeF0RYkLrDEjI\",\"is_local\":false},{\"album\":{\"album_type\":\"album\",\"total_tracks\":13,\"available_markets\":[\"AR\",\"AU\",\"AT\",\"BE\",\"BO\",\"BR\",\"BG\",\"CA\",\"CL\",\"CO\",\"CR\",\"CY\",\"CZ\",\"DK\",\"DO\",\"DE\",\"EC\",\"EE\",\"SV\",\"FI\",\"FR\",\"GR\",\"GT\",\"HN\",\"HK\",\"HU\",\"IS\",\"IE\",\"IT\",\"LV\",\"LT\",\"LU\",\"MY\",\"MT\",\"MX\",\"NL\",\"NZ\",\"NI\",\"NO\",\"PA\",\"PY\",\"PE\",\"PH\",\"PL\",\"PT\",\"SG\",\"SK\",\"ES\",\"SE\",\"CH\",\"TW\",\"TR\",\"UY\",\"US\",\"GB\",\"AD\",\"LI\",\"MC\",\"ID\",\"JP\",\"TH\",\"VN\",\"RO\",\"IL\",\"ZA\",\"SA\",\"AE\",\"BH\",\"QA\",\"OM\",\"KW\",\"EG\",\"MA\",\"DZ\",\"TN\",\"LB\",\"JO\",\"PS\",\"IN\",\"BY\",\"KZ\",\"MD\",\"UA\",\"AL\",\"BA\",\"HR\",\"ME\",\"MK\",\"RS\",\"SI\",\"KR\",\"BD\",\"PK\",\"LK\",\"GH\",\"KE\",\"NG\",\"TZ\",\"UG\",\"AG\",\"AM\",\"BS\",\"BB\",\"BZ\",\"BT\",\"BW\",\"BF\",\"CV\",\"CW\",\"DM\",\"FJ\",\"GM\",\"GE\",\"GD\",\"GW\",\"GY\",\"HT\",\"JM\",\"KI\",\"LS\",\"LR\",\"MW\",\"MV\",\"ML\",\"MH\",\"FM\",\"NA\",\"NR\",\"NE\",\"PW\",\"PG\",\"PR\",\"WS\",\"SM\",\"ST\",\"SN\",\"SC\",\"SL\",\"SB\",\"KN\",\"LC\",\"VC\",\"SR\",\"TL\",\"TO\",\"TT\",\"TV\",\"VU\",\"AZ\",\"BN\",\"BI\",\"KH\",\"CM\",\"TD\",\"KM\",\"GQ\",\"SZ\",\"GA\",\"GN\",\"KG\",\"LA\",\"MO\",\"MR\",\"MN\",\"NP\",\"RW\",\"TG\",\"UZ\",\"ZW\",\"BJ\",\"MG\",\"MU\",\"MZ\",\"AO\",\"CI\",\"DJ\",\"ZM\",\"CD\",\"CG\",\"IQ\",\"LY\",\"TJ\",\"VE\",\"ET\",\"XK\"],\"external_urls\":{\"spotify\":\"https://open.spotify.com/album/7FErRFVQYaG2c0UUBapFGT\"},\"href\":\"https://api.spotify.com/v1/albums/7FErRFVQYaG2c0UUBapFGT\",\"id\":\"7FErRFVQYaG2c0UUBapFGT\",\"images\":[{\"url\":\"https://i.scdn.co/image/ab67616d0000b2737644419a030bb0a0e29188f6\",\"height\":640,\"width\":640},{\"url\":\"https://i.scdn.co/image/ab67616d00001e027644419a030bb0a0e29188f6\",\"height\":300,\"width\":300},{\"url\":\"https://i.scdn.co/image/ab67616d000048517644419a030bb0a0e29188f6\",\"height\":64,\"width\":64}],\"name\":\"Dance Gavin Dance\",\"release_date\":\"2008-08-19\",\"release_date_precision\":\"day\",\"restrictions\":null,\"type\":\"album\",\"uri\":\"spotify:album:7FErRFVQYaG2c0UUBapFGT\",\"artists\":[{\"external_urls\":{\"spotify\":\"https://open.spotify.com/artist/6guC9FqvlVboSKTI77NG2k\"},\"href\":\"https://api.spotify.com/v1/artists/6guC9FqvlVboSKTI77NG2k\",\"id\":\"6guC9FqvlVboSKTI77NG2k\",\"name\":\"Dance Gavin Dance\",\"type\":\"artist\",\"uri\":\"spotify:artist:6guC9FqvlVboSKTI77NG2k\"}]},\"artists\":[{\"external_urls\":{\"spotify\":\"https://open.spotify.com/artist/6guC9FqvlVboSKTI77NG2k\"},\"href\":\"https://api.spotify.com/v1/artists/6guC9FqvlVboSKTI77NG2k\",\"id\":\"6guC9FqvlVboSKTI77NG2k\",\"name\":\"Dance Gavin Dance\",\"type\":\"artist\",\"uri\":\"spotify:artist:6guC9FqvlVboSKTI77NG2k\"}],\"available_markets\":[\"AR\",\"AU\",\"AT\",\"BE\",\"BO\",\"BR\",\"BG\",\"CA\",\"CL\",\"CO\",\"CR\",\"CY\",\"CZ\",\"DK\",\"DO\",\"DE\",\"EC\",\"EE\",\"SV\",\"FI\",\"FR\",\"GR\",\"GT\",\"HN\",\"HK\",\"HU\",\"IS\",\"IE\",\"IT\",\"LV\",\"LT\",\"LU\",\"MY\",\"MT\",\"MX\",\"NL\",\"NZ\",\"NI\",\"NO\",\"PA\",\"PY\",\"PE\",\"PH\",\"PL\",\"PT\",\"SG\",\"SK\",\"ES\",\"SE\",\"CH\",\"TW\",\"TR\",\"UY\",\"US\",\"GB\",\"AD\",\"LI\",\"MC\",\"ID\",\"JP\",\"TH\",\"VN\",\"RO\",\"IL\",\"ZA\",\"SA\",\"AE\",\"BH\",\"QA\",\"OM\",\"KW\",\"EG\",\"MA\",\"DZ\",\"TN\",\"LB\",\"JO\",\"PS\",\"IN\",\"BY\",\"KZ\",\"MD\",\"UA\",\"AL\",\"BA\",\"HR\",\"ME\",\"MK\",\"RS\",\"SI\",\"KR\",\"BD\",\"PK\",\"LK\",\"GH\",\"KE\",\"NG\",\"TZ\",\"UG\",\"AG\",\"AM\",\"BS\",\"BB\",\"BZ\",\"BT\",\"BW\",\"BF\",\"CV\",\"CW\",\"DM\",\"FJ\",\"GM\",\"GE\",\"GD\",\"GW\",\"GY\",\"HT\",\"JM\",\"KI\",\"LS\",\"LR\",\"MW\",\"MV\",\"ML\",\"MH\",\"FM\",\"NA\",\"NR\",\"NE\",\"PW\",\"PG\",\"PR\",\"WS\",\"SM\",\"ST\",\"SN\",\"SC\",\"SL\",\"SB\",\"KN\",\"LC\",\"VC\",\"SR\",\"TL\",\"TO\",\"TT\",\"TV\",\"VU\",\"AZ\",\"BN\",\"BI\",\"KH\",\"CM\",\"TD\",\"KM\",\"GQ\",\"SZ\",\"GA\",\"GN\",\"KG\",\"LA\",\"MO\",\"MR\",\"MN\",\"NP\",\"RW\",\"TG\",\"UZ\",\"ZW\",\"BJ\",\"MG\",\"MU\",\"MZ\",\"AO\",\"CI\",\"DJ\",\"ZM\",\"CD\",\"CG\",\"IQ\",\"LY\",\"TJ\",\"VE\",\"ET\",\"XK\"],\"disc_number\":1,\"duration_ms\":218453,\"explicit\":true,\"external_ids\":{\"isrc\":\"USEK70806707\"},\"external_urls\":{\"spotify\":\"https://open.spotify.com/track/59RtbarKXlfmbKZjvkwoW7\"},\"href\":\"https://api.spotify.com/v1/tracks/59RtbarKXlfmbKZjvkwoW7\",\"id\":\"59RtbarKXlfmbKZjvkwoW7\",\"restrictions\":null,\"name\":\"Uneasy Hearts Weigh The Most\",\"popularity\":56,\"preview_url\":\"https://p.scdn.co/mp3-preview/20fdc3390b7e1b65e652751af87d65aa13e4a02d?cid=599d5c355ead41b6b6b8b958bee6c56c\",\"track_number\":7,\"type\":\"track\",\"uri\":\"spotify:track:59RtbarKXlfmbKZjvkwoW7\",\"is_local\":false},{\"album\":{\"album_type\":\"album\",\"total_tracks\":10,\"available_markets\":[\"AR\",\"AU\",\"AT\",\"BE\",\"BO\",\"BR\",\"BG\",\"CA\",\"CL\",\"CO\",\"CR\",\"CY\",\"CZ\",\"DK\",\"DO\",\"DE\",\"EC\",\"EE\",\"SV\",\"FI\",\"FR\",\"GR\",\"GT\",\"HN\",\"HK\",\"HU\",\"IS\",\"IE\",\"IT\",\"LV\",\"LT\",\"LU\",\"MY\",\"MT\",\"MX\",\"NL\",\"NZ\",\"NI\",\"NO\",\"PA\",\"PY\",\"PE\",\"PH\",\"PL\",\"PT\",\"SG\",\"SK\",\"ES\",\"SE\",\"CH\",\"TW\",\"TR\",\"UY\",\"US\",\"GB\",\"AD\",\"LI\",\"MC\",\"ID\",\"JP\",\"TH\",\"VN\",\"RO\",\"IL\",\"ZA\",\"SA\",\"AE\",\"BH\",\"QA\",\"OM\",\"KW\",\"EG\",\"MA\",\"DZ\",\"TN\",\"LB\",\"JO\",\"PS\",\"IN\",\"BY\",\"KZ\",\"MD\",\"UA\",\"AL\",\"BA\",\"HR\",\"ME\",\"MK\",\"RS\",\"SI\",\"KR\",\"BD\",\"PK\",\"LK\",\"GH\",\"KE\",\"NG\",\"TZ\",\"UG\",\"AG\",\"AM\",\"BS\",\"BB\",\"BZ\",\"BT\",\"BW\",\"BF\",\"CV\",\"CW\",\"DM\",\"FJ\",\"GM\",\"GE\",\"GD\",\"GW\",\"GY\",\"HT\",\"JM\",\"KI\",\"LS\",\"LR\",\"MW\",\"MV\",\"ML\",\"MH\",\"FM\",\"NA\",\"NR\",\"NE\",\"PW\",\"PG\",\"PR\",\"WS\",\"SM\",\"ST\",\"SN\",\"SC\",\"SL\",\"SB\",\"KN\",\"LC\",\"VC\",\"SR\",\"TL\",\"TO\",\"TT\",\"TV\",\"VU\",\"AZ\",\"BN\",\"BI\",\"KH\",\"CM\",\"TD\",\"KM\",\"GQ\",\"SZ\",\"GA\",\"GN\",\"KG\",\"LA\",\"MO\",\"MR\",\"MN\",\"NP\",\"RW\",\"TG\",\"UZ\",\"ZW\",\"BJ\",\"MG\",\"MU\",\"MZ\",\"AO\",\"CI\",\"DJ\",\"ZM\",\"CD\",\"CG\",\"IQ\",\"LY\",\"TJ\",\"VE\",\"ET\",\"XK\"],\"external_urls\":{\"spotify\":\"https://open.spotify.com/album/3Q0ElZiEA7GBDcqNyeF71r\"},\"href\":\"https://api.spotify.com/v1/albums/3Q0ElZiEA7GBDcqNyeF71r\",\"id\":\"3Q0ElZiEA7GBDcqNyeF71r\",\"images\":[{\"url\":\"https://i.scdn.co/image/ab67616d0000b27320c8625046b706b7743547ac\",\"height\":640,\"width\":640},{\"url\":\"https://i.scdn.co/image/ab67616d00001e0220c8625046b706b7743547ac\",\"height\":300,\"width\":300},{\"url\":\"https://i.scdn.co/image/ab67616d0000485120c8625046b706b7743547ac\",\"height\":64,\"width\":64}],\"name\":\"In Stasis\",\"release_date\":\"2022-04-15\",\"release_date_precision\":\"day\",\"restrictions\":null,\"type\":\"album\",\"uri\":\"spotify:album:3Q0ElZiEA7GBDcqNyeF71r\",\"artists\":[{\"external_urls\":{\"spotify\":\"https://open.spotify.com/artist/71IBhhBhtPLZ8OyVuXOw77\"},\"href\":\"https://api.spotify.com/v1/artists/71IBhhBhtPLZ8OyVuXOw77\",\"id\":\"71IBhhBhtPLZ8OyVuXOw77\",\"name\":\"Monuments\",\"type\":\"artist\",\"uri\":\"spotify:artist:71IBhhBhtPLZ8OyVuXOw77\"}]},\"artists\":[{\"external_urls\":{\"spotify\":\"https://open.spotify.com/artist/71IBhhBhtPLZ8OyVuXOw77\"},\"href\":\"https://api.spotify.com/v1/artists/71IBhhBhtPLZ8OyVuXOw77\",\"id\":\"71IBhhBhtPLZ8OyVuXOw77\",\"name\":\"Monuments\",\"type\":\"artist\",\"uri\":\"spotify:artist:71IBhhBhtPLZ8OyVuXOw77\"}],\"available_markets\":[\"AR\",\"AU\",\"AT\",\"BE\",\"BO\",\"BR\",\"BG\",\"CA\",\"CL\",\"CO\",\"CR\",\"CY\",\"CZ\",\"DK\",\"DO\",\"DE\",\"EC\",\"EE\",\"SV\",\"FI\",\"FR\",\"GR\",\"GT\",\"HN\",\"HK\",\"HU\",\"IS\",\"IE\",\"IT\",\"LV\",\"LT\",\"LU\",\"MY\",\"MT\",\"MX\",\"NL\",\"NZ\",\"NI\",\"NO\",\"PA\",\"PY\",\"PE\",\"PH\",\"PL\",\"PT\",\"SG\",\"SK\",\"ES\",\"SE\",\"CH\",\"TW\",\"TR\",\"UY\",\"US\",\"GB\",\"AD\",\"LI\",\"MC\",\"ID\",\"JP\",\"TH\",\"VN\",\"RO\",\"IL\",\"ZA\",\"SA\",\"AE\",\"BH\",\"QA\",\"OM\",\"KW\",\"EG\",\"MA\",\"DZ\",\"TN\",\"LB\",\"JO\",\"PS\",\"IN\",\"BY\",\"KZ\",\"MD\",\"UA\",\"AL\",\"BA\",\"HR\",\"ME\",\"MK\",\"RS\",\"SI\",\"KR\",\"BD\",\"PK\",\"LK\",\"GH\",\"KE\",\"NG\",\"TZ\",\"UG\",\"AG\",\"AM\",\"BS\",\"BB\",\"BZ\",\"BT\",\"BW\",\"BF\",\"CV\",\"CW\",\"DM\",\"FJ\",\"GM\",\"GE\",\"GD\",\"GW\",\"GY\",\"HT\",\"JM\",\"KI\",\"LS\",\"LR\",\"MW\",\"MV\",\"ML\",\"MH\",\"FM\",\"NA\",\"NR\",\"NE\",\"PW\",\"PG\",\"PR\",\"WS\",\"SM\",\"ST\",\"SN\",\"SC\",\"SL\",\"SB\",\"KN\",\"LC\",\"VC\",\"SR\",\"TL\",\"TO\",\"TT\",\"TV\",\"VU\",\"AZ\",\"BN\",\"BI\",\"KH\",\"CM\",\"TD\",\"KM\",\"GQ\",\"SZ\",\"GA\",\"GN\",\"KG\",\"LA\",\"MO\",\"MR\",\"MN\",\"NP\",\"RW\",\"TG\",\"UZ\",\"ZW\",\"BJ\",\"MG\",\"MU\",\"MZ\",\"AO\",\"CI\",\"DJ\",\"ZM\",\"CD\",\"CG\",\"IQ\",\"LY\",\"TJ\",\"VE\",\"ET\",\"XK\"],\"disc_number\":1,\"duration_ms\":270546,\"explicit\":false,\"external_ids\":{\"isrc\":\"GBDHC2226910\"},\"external_urls\":{\"spotify\":\"https://open.spotify.com/track/5hT9plaY8kgBZSmCUpfV47\"},\"href\":\"https://api.spotify.com/v1/tracks/5hT9plaY8kgBZSmCUpfV47\",\"id\":\"5hT9plaY8kgBZSmCUpfV47\",\"restrictions\":null,\"name\":\"Makeshift Harmony\",\"popularity\":36,\"preview_url\":\"https://p.scdn.co/mp3-preview/c054ade6f2295b788cfb969644be8853da973b32?cid=599d5c355ead41b6b6b8b958bee6c56c\",\"track_number\":9,\"type\":\"track\",\"uri\":\"spotify:track:5hT9plaY8kgBZSmCUpfV47\",\"is_local\":false}]}"