"{\"href\":\"https://api.spotify.com/v1/me/top/artists?limit=5&time_range=long_term\",\"limit\":5,\"next\":\"https://api.spotify.com/v1/me/top/artists?offset=5&limit=5&time_range=long_term\",\"offset\":0,\"previous\":null,\"total\":605,\"items\":[{\"external_urls\":{\"spotify\":\"https://open.spotify.com/artist/6guC9FqvlVboSKTI77NG2k\"},\"href\":\"https://api.spotify.com/v1/artists/6guC9FqvlVboSKTI77NG2k\",\"id\":\"6guC9FqvlVboSKTI77NG2k\",\"name\":\"Dance Gavin Dance\",\"type\":\"artist\",\"uri\":\"spotify:artist:6guC9FqvlVboSKTI77NG2k\",\"followers\":{\"total\":736931},\"genres\":[\"pixie\",\"sacramento indie\",\"screamo\",\"swancore\"],\"images\":[{\"url\":\"https://i.scdn.co/image/ab6761610000e5ebac986a89e9043470101b9c54\",\"height\":640,\"width\":640},{\"url\":\"https://i.scdn.co/image/ab67616100005174ac986a89e9043470101b9c54\",\"height\":320,\"width\":320},{\"url\":\"https://i.scdn.co/image/ab6761610000f178ac986a89e9043470101b9c54\",\"height\":160,\"width\":160}],\"popularity\":64},{\"external_urls\":{\"spotify\":\"https://open.spotify.com/artist/4vGrte8FDu062Ntj0RsPiZ\"},\"href\":\"https://api.spotify.com/v1/artists/4vGrte8FDu062Ntj0RsPiZ\",\"id\":\"4vGrte8FDu062Ntj0RsPiZ\",\"name\":\"Polyphia\",\"type\":\"artist\",\"uri\":\"spotify:artist:4vGrte8FDu062Ntj0RsPiZ\",\"followers\":{\"total\":1230014},\"genres\":[\"instrumental rock\"],\"images\":[{\"url\":\"https://i.scdn.co/image/ab6761610000e5ebd0d5560f6b2ebe39a6d20704\",\"height\":640,\"width\":640},{\"url\":\"https://i.scdn.co/image/ab67616100005174d0d5560f6b2ebe39a6d20704\",\"height\":320,\"width\":320},{\"url\":\"https://i.scdn.co/image/ab6761610000f178d0d5560f6b2ebe39a6d20704\",\"height\":160,\"width\":160}],\"popularity\":62},{\"external_urls\":{\"spotify\":\"https://open.spotify.com/artist/2nvl0N9GwyX69RRBMEZ4OD\"},\"href\":\"https://api.spotify.com/v1/artists/2nvl0N9GwyX69RRBMEZ4OD\",\"id\":\"2nvl0N9GwyX69RRBMEZ4OD\",\"name\":\"\u7d50\u675f\u30d0\u30f3\u30c9\",\"type\":\"artist\",\"uri\":\"spotify:artist:2nvl0N9GwyX69RRBMEZ4OD\",\"followers\":{\"total\":533572},\"genres\":[],\"images\":[{\"url\":\"https://i.scdn.co/image/ab6761610000e5eb38df323a9b0d7880ae59590b\",\"height\":640,\"width\":640},{\"url\":\"https://i.scdn.co/image/ab6761610000517438df323a9b0d7880ae59590b\",\"height\":320,\"width\":320},{\"url\":\"https://i.scdn.co/image/ab6761610000f17838df323a9b0d7880ae59590b\",\"height\":160,\"width\":160}],\"popularity\":64},{\"external_urls\":{\"spotify\":\"https://open.spotify.com/artist/23ytwhG1pzX6DIVWRWvW1r\"},\"href\":\"https://api.spotify.com/v1/artists/23ytwhG1pzX6DIVWRWvW1r\",\"id\":\"23ytwhG1pzX6DIVWRWvW1r\",\"name\":\"TesseracT\",\"type\":\"artist\",\"uri\":\"spotify:artist:23ytwhG1pzX6DIVWRWvW1r\",\"followers\":{\"total\":328081},\"genres\":[\"djent\",\"progressive metal\"],\"images\":[{\"url\":\"https://i.scdn.co/image/ab6761610000e5ebe7f6346ac85070065ea2368d\",\"height\":640,\"width\":640},{\"url\":\"https://i.scdn.co/image/ab67616100005174e7f6346ac85070065ea2368d\",\"height\":320,\"width\":320},{\"url\":\"https://i.scdn.co/image/ab6761610000f178e7f6346ac85070065ea2368d\",\"height\":160,\"width\":160}],\"popularity\":48},{\"external_urls\":{\"spotify\":\"https://open.spotify.com/artist/64tJ2EAv1R6UaZqc4iOCyj\"},\"href\":\"https://api.spotify.com/v1/artists/64tJ2EAv1R6UaZqc4iOCyj\",\"id\":\"64tJ2EAv1R6UaZqc4iOCyj\",\"name\":\"YOASOBI\",\"type\":\"artist\",\"uri\":\"spotify:artist:64tJ2EAv1R6UaZqc4iOCyj\",\"followers\":{\"total\":8497693},\"genres\":[\"j-pop\",\"japanese teen pop\"],\"images\":[{\"url\":\"https://i.scdn.co/image/ab6761610000e5eb83e2d0c9611f1fb6baafcb36\",\"height\":640,\"width\":640},{\"url\":\"https://i.scdn.co/image/ab6761610000517483e2d0c9611f1fb6baafcb36\",\"height\":320,\"width\":320},{\"url\":\"https://i.scdn.co/image/ab6761610000f17883e2d0c9611f1fb6baafcb36\",\"height\":160,\"width\":160}],\"popularity\":77}]}"