"{\"href\":\"https://api.spotify.com/v1/me/top/tracks?limit=5&time_range=short_term\",\"limit\":5,\"next\":\"https://api.spotify.com/v1/me/top/tracks?offset=5&limit=5&time_range=short_term\",\"offset\":0,\"previous\":null,\"total\":834,\"items\":[{\"album\":{\"album_type\":\"album\",\"total_tracks\":13,\"available_markets\":[\"AR\",\"AU\",\"AT\",\"BE\",\"BO\",\"BR\",\"BG\",\"CA\",\"CL\",\"CO\",\"CR\",\"CY\",\"CZ\",\"DK\",\"DO\",\"DE\",\"EC\",\"EE\",\"SV\",\"FI\",\"FR\",\"GR\",\"GT\",\"HN\",\"HK\",\"HU\",\"IS\",\"IE\",\"IT\",\"LV\",\"LT\",\"LU\",\"MY\",\"MT\",\"MX\",\"NL\",\"NZ\",\"NI\",\"NO\",\"PA\",\"PY\",\"PE\",\"PH\",\"PL\",\"PT\",\"SG\",\"SK\",\"ES\",\"SE\",\"CH\",\"TW\",\"TR\",\"UY\",\"US\",\"GB\",\"AD\",\"LI\",\"MC\",\"ID\",\"JP\",\"TH\",\"VN\",\"RO\",\"IL\",\"ZA\",\"SA\",\"AE\",\"BH\",\"QA\",\"OM\",\"KW\",\"EG\",\"MA\",\"DZ\",\"TN\",\"LB\",\"JO\",\"PS\",\"IN\",\"BY\",\"KZ\",\"MD\",\"UA\",\"AL\",\"BA\",\"HR\",\"ME\",\"MK\",\"RS\",\"SI\",\"KR\",\"BD\",\"PK\",\"LK\",\"GH\",\"KE\",\"NG\",\"TZ\",\"UG\",\"AG\",\"AM\",\"BS\",\"BB\",\"BZ\",\"BT\",\"BW\",\"BF\",\"CV\",\"CW\",\"DM\",\"FJ\",\"GM\",\"GE\",\"GD\",\"GW\",\"GY\",\"HT\",\"JM\",\"KI\",\"LS\",\"LR\",\"MW\",\"MV\",\"ML\",\"MH\",\"FM\",\"NA\",\"NR\",\"NE\",\"PW\",\"PG\",\"PR\",\"WS\",\"SM\",\"ST\",\"SN\",\"SC\",\"SL\",\"SB\",\"KN\",\"LC\",\"VC\",\"SR\",\"TL\",\"TO\",\"TT\",\"TV\",\"VU\",\"AZ\",\"BN\",\"BI\",\"KH\",\"CM\",\"TD\",\"KM\",\"GQ\",\"SZ\",\"GA\",\"GN\",\"KG\",\"LA\",\"MO\",\"MR\",\"MN\",\"NP\",\"RW\",\"TG\",\"UZ\",\"ZW\",\"BJ\",\"MG\",\"MU\",\"MZ\",\"AO\",\"CI\",\"DJ\",\"ZM\",\"CD\",\"CG\",\"IQ\",\"LY\",\"TJ\",\"VE\",\"ET\",\"XK\"],\"external_urls\":{\"spotify\":\"https://open.spotify.com/album/6lVGpUZUkLWjKQDeg84dWB\"},\"href\":\"https://api.spotify.com/v1/albums/6lVGpUZUkLWjKQDeg84dWB\",\"id\":\"6lVGpUZUkLWjKQDeg84dWB\",\"images\":[{\"url\":\"https://i.scdn.co/image/ab67616d0000b273b7780f434a34b731f83914b4\",\"height\":640,\"width\":640},{\"url\":\"https://i.scdn.co/image/ab67616d00001e02b7780f434a34b731f83914b4\",\"height\":300,\"width\":300},{\"url\":\"https://i.scdn.co/image/ab67616d00004851b7780f434a34b731f83914b4\",\"height\":64,\"width\":64}],\"name\":\"Mothership\",\"release_date\":\"2016-10-07\",\"release_date_precision\":\"day\",\"restrictions\":null,\"type\":\"album\",\"uri\":\"spotify:album:6lVGpUZUkLWjKQDeg84dWB\",\"artists\":[{\"external_urls\":{\"spotify\":\"https://open.spotify.com/artist/6guC9FqvlVboSKTI77NG2k\"},\"href\":\"https://api.spotify.com/v1/artists/6guC9FqvlVboSKTI77NG2k\",\"id\":\"6guC9FqvlVboSKTI77NG2k\",\"name\":\"Dance Gavin Dance\",\"type\":\"artist\",\"uri\":\"spotify:artist:6guC9FqvlVboSKTI77NG2k\"}]},\"artists\":[{\"external_urls\":{\"spotify\":\"https://open.spotify.com/artist/6guC9FqvlVboSKTI77NG2k\"},\"href\":\"https://api.spotify.com/v1/artists/6guC9FqvlVboSKTI77NG2k\",\"id\":\"6guC9FqvlVboSKTI77NG2k\",\"name\":\"Dance Gavin Dance\",\"type\":\"artist\",\"uri\":\"spotify:artist:6guC9FqvlVboSKTI77NG2k\"}],\"available_markets\":[\"AR\",\"AU\",\"AT\",\"BE\",\"BO\",\"BR\",\"BG\",\"CA\",\"CL\",\"CO\",\"CR\",\"CY\",\"CZ\",\"DK\",\"DO\",\"DE\",\"EC\",\"EE\",\"SV\",\"FI\",\"FR\",\"GR\",\"GT\",\"HN\",\"HK\",\"HU\",\"IS\",\"IE\",\"IT\",\"LV\",\"LT\",\"LU\",\"MY\",\"MT\",\"MX\",\"NL\",\"NZ\",\"NI\",\"NO\",\"PA\",\"PY\",\"PE\",\"PH\",\"PL\",\"PT\",\"SG\",\"SK\",\"ES\",\"SE\",\"CH\",\"TW\",\"TR\",\"UY\",\"US\",\"GB\",\"AD\",\"LI\",\"MC\",\"ID\",\"JP\",\"TH\",\"VN\",\"RO\",\"IL\",\"ZA\",\"SA\",\"AE\",\"BH\",\"QA\",\"OM\",\"KW\",\"EG\",\"MA\",\"DZ\",\"TN\",\"LB\",\"JO\",\"PS\",\"IN\",\"BY\",\"KZ\",\"MD\",\"UA\",\"AL\",\"BA\",\"HR\",\"ME\",\"MK\",\"RS\",\"SI\",\"KR\",\"BD\",\"PK\",\"LK\",\"GH\",\"KE\",\"NG\",\"TZ\",\"UG\",\"AG\",\"AM\",\"BS\",\"BB\",\"BZ\",\"BT\",\"BW\",\"BF\",\"CV\",\"CW\",\"DM\",\"FJ\",\"GM\",\"GE\",\"GD\",\"GW\",\"GY\",\"HT\",\"JM\",\"KI\",\"LS\",\"LR\",\"MW\",\"MV\",\"ML\",\"MH\",\"FM\",\"NA\",\"NR\",\"NE\",\"PW\",\"PG\",\"PR\",\"WS\",\"SM\",\"ST\",\"SN\",\"SC\",\"SL\",\"SB\",\"KN\",\"LC\",\"VC\",\"SR\",\"TL\",\"TO\",\"TT\",\"TV\",\"VU\",\"AZ\",\"BN\",\"BI\",\"KH\",\"CM\",\"TD\",\"KM\",\"GQ\",\"SZ\",\"GA\",\"GN\",\"KG\",\"LA\",\"MO\",\"MR\",\"MN\",\"NP\",\"RW\",\"TG\",\"UZ\",\"ZW\",\"BJ\",\"MG\",\"MU\",\"MZ\",\"AO\",\"CI\",\"DJ\",\"ZM\",\"CD\",\"CG\",\"IQ\",\"LY\",\"TJ\",\"VE\",\"ET\",\"XK\"],\"disc_number\":1,\"duration_ms\":236253,\"explicit\":true,\"external_ids\":{\"isrc\":\"QMRSZ1600572\"},\"external_urls\":{\"spotify\":\"https://open.spotify.com/track/53HL4nLQfifN8gTtZwBzzc\"},\"href\":\"https://api.spotify.com/v1/tracks/53HL4nLQfifN8gTtZwBzzc\",\"id\":\"53HL4nLQfifN8gTtZwBzzc\",\"restrictions\":null,\"name\":\"Chucky vs. The Giant Tortoise\",\"popularity\":50,\"preview_url\":\"https://p.scdn.co/mp3-preview/d81c4e01c763548b1cd4642491b2343c93e6239e?cid=599d5c355ead41b6b6b8b958bee6c56c\",\"track_number\":1,\"type\":\"track\",\"uri\":\"spotify:track:53HL4nLQfifN8gTtZwBzzc\",\"is_local\":false},{\"album\":{\"album_type\":\"album\",\"total_tracks\":10,\"available_markets\":[\"AR\",\"AU\",\"AT\",\"BE\",\"BO\",\"BR\",\"BG\",\"CA\",\"CL\",\"CO\",\"CR\",\"CY\",\"CZ\",\"DK\",\"DO\",\"DE\",\"EC\",\"EE\",\"SV\",\"FI\",\"FR\",\"GR\",\"GT\",\"HN\",\"HK\",\"HU\",\"IS\",\"IE\",\"IT\",\"LV\",\"LT\",\"LU\",\"MY\",\"MT\",\"MX\",\"NL\",\"NZ\",\"NI\",\"NO\",\"PA\",\"PY\",\"PE\",\"PH\",\"PL\",\"PT\",\"SG\",\"SK\",\"ES\",\"SE\",\"CH\",\"TW\",\"TR\",\"UY\",\"US\",\"GB\",\"AD\",\"LI\",\"MC\",\"ID\",\"JP\",\"TH\",\"VN\",\"RO\",\"IL\",\"ZA\",\"SA\",\"AE\",\"BH\",\"QA\",\"OM\",\"KW\",\"EG\",\"MA\",\"DZ\",\"TN\",\"LB\",\"JO\",\"PS\",\"IN\",\"BY\",\"KZ\",\"MD\",\"UA\",\"AL\",\"BA\",\"HR\",\"ME\",\"MK\",\"RS\",\"SI\",\"KR\",\"BD\",\"PK\",\"LK\",\"GH\",\"KE\",\"NG\",\"TZ\",\"UG\",\"AG\",\"AM\",\"BS\",\"BB\",\"BZ\",\"BT\",\"BW\",\"BF\",\"CV\",\"CW\",\"DM\",\"FJ\",\"GM\",\"GE\",\"GD\",\"GW\",\"GY\",\"HT\",\"JM\",\"KI\",\"LS\",\"LR\",\"MW\",\"MV\",\"ML\",\"MH\",\"FM\",\"NA\",\"NR\",\"NE\",\"PW\",\"PG\",\"WS\",\"SM\",\"ST\",\"SN\",\"SC\",\"SL\",\"SB\",\"KN\",\"LC\",\"VC\",\"SR\",\"TL\",\"TO\",\"TT\",\"TV\",\"VU\",\"AZ\",\"BN\",\"BI\",\"KH\",\"CM\",\"TD\",\"KM\",\"GQ\",\"SZ\",\"GA\",\"GN\",\"KG\",\"LA\",\"MO\",\"MR\",\"MN\",\"NP\",\"RW\",\"TG\",\"UZ\",\"ZW\",\"BJ\",\"MG\",\"MU\",\"MZ\",\"AO\",\"CI\",\"DJ\",\"ZM\",\"CD\",\"CG\",\"IQ\",\"LY\",\"TJ\",\"VE\",\"ET\",\"XK\"],\"external_urls\":{\"spotify\":\"https://open.spotify.com/album/0kBfgEilUFCMIQY5IOjG4t\"},\"href\":\"https://api.spotify.com/v1/albums/0kBfgEilUFCMIQY5IOjG4t\",\"id\":\"0kBfgEilUFCMIQY5IOjG4t\",\"images\":[{\"url\":\"https://i.scdn.co/image/ab67616d0000b2731336b31b6a1799f0de5807ac\",\"height\":640,\"width\":640},{\"url\":\"https://i.scdn.co/image/ab67616d00001e021336b31b6a1799f0de5807ac\",\"height\":300,\"width\":300},{\"url\":\"https://i.scdn.co/image/ab67616d000048511336b31b6a1799f0de5807ac\",\"height\":64,\"width\":64}],\"name\":\"Slippery When Wet\",\"release_date\":\"1986-08-16\",\"release_date_precision\":\"day\",\"restrictions\":null,\"type\":\"album\",\"uri\":\"spotify:album:0kBfgEilUFCMIQY5IOjG4t\",\"artists\":[{\"external_urls\":{\"spotify\":\"https://open.spotify.com/artist/58lV9VcRSjABbAbfWS6skp\"},\"href\":\"https://api.spotify.com/v1/artists/58lV9VcRSjABbAbfWS6skp\",\"id\":\"58lV9VcRSjABbAbfWS6skp\",\"name\":\"Bon Jovi\",\"type\":\"artist\",\"uri\":\"spotify:artist:58lV9VcRSjABbAbfWS6skp\"}]},\"artists\":[{\"external_urls\":{\"spotify\":\"https://open.spotify.com/artist/58lV9VcRSjABbAbfWS6skp\"},\"href\":\"https://api.spotify.com/v1/artists/58lV9VcRSjABbAbfWS6skp\",\"id\":\"58lV9VcRSjABbAbfWS6skp\",\"name\":\"Bon Jovi\",\"type\":\"artist\",\"uri\":\"spotify:artist:58lV9VcRSjABbAbfWS6skp\"}],\"available_markets\":[\"AR\",\"AU\",\"AT\",\"BE\",\"BO\",\"BR\",\"BG\",\"CA\",\"CL\",\"CO\",\"CR\",\"CY\",\"CZ\",\"DK\",\"DO\",\"DE\",\"EC\",\"EE\",\"SV\",\"FI\",\"FR\",\"GR\",\"GT\",\"HN\",\"HK\",\"HU\",\"IS\",\"IE\",\"IT\",\"LV\",\"LT\",\"LU\",\"MY\",\"MT\",\"MX\",\"NL\",\"NZ\",\"NI\",\"NO\",\"PA\",\"PY\",\"PE\",\"PH\",\"PL\",\"PT\",\"SG\",\"SK\",\"ES\",\"SE\",\"CH\",\"TW\",\"TR\",\"UY\",\"US\",\"GB\",\"AD\",\"LI\",\"MC\",\"ID\",\"JP\",\"TH\",\"VN\",\"RO\",\"IL\",\"ZA\",\"SA\",\"AE\",\"BH\",\"QA\",\"OM\",\"KW\",\"EG\",\"MA\",\"DZ\",\"TN\",\"LB\",\"JO\",\"PS\",\"IN\",\"BY\",\"KZ\",\"MD\",\"UA\",\"AL\",\"BA\",\"HR\",\"ME\",\"MK\",\"RS\",\"SI\",\"KR\",\"BD\",\"PK\",\"LK\",\"GH\",\"KE\",\"NG\",\"TZ\",\"UG\",\"AG\",\"AM\",\"BS\",\"BB\",\"BZ\",\"BT\",\"BW\",\"BF\",\"CV\",\"CW\",\"DM\",\"FJ\",\"GM\",\"GE\",\"GD\",\"GW\",\"GY\",\"HT\",\"JM\",\"KI\",\"LS\",\"LR\",\"MW\",\"MV\",\"ML\",\"MH\",\"FM\",\"NA\",\"NR\",\"NE\",\"PW\",\"PG\",\"WS\",\"SM\",\"ST\",\"SN\",\"SC\",\"SL\",\"SB\",\"KN\",\"LC\",\"VC\",\"SR\",\"TL\",\"TO\",\"TT\",\"TV\",\"VU\",\"AZ\",\"BN\",\"BI\",\"KH\",\"CM\",\"TD\",\"KM\",\"GQ\",\"SZ\",\"GA\",\"GN\",\"KG\",\"LA\",\"MO\",\"MR\",\"MN\",\"NP\",\"RW\",\"TG\",\"UZ\",\"ZW\",\"BJ\",\"MG\",\"MU\",\"MZ\",\"AO\",\"CI\",\"DJ\",\"ZM\",\"CD\",\"CG\",\"IQ\",\"LY\",\"TJ\",\"VE\",\"ET\",\"XK\"],\"disc_number\":1,\"duration_ms\":249293,\"explicit\":false,\"external_ids\":{\"isrc\":\"USPR38619998\"},\"external_urls\":{\"spotify\":\"https://open.spotify.com/track/37ZJ0p5Jm13JPevGcx4SkF\"},\"href\":\"https://api.spotify.com/v1/tracks/37ZJ0p5Jm13JPevGcx4SkF\",\"id\":\"37ZJ0p5Jm13JPevGcx4SkF\",\"restrictions\":null,\"name\":\"Livin' On A Prayer\",\"popularity\":83,\"preview_url\":\"https://p.scdn.co/mp3-preview/2a84c209d6bfe17da820bbc28d1e610a5d304a53?cid=599d5c355ead41b6b6b8b958bee6c56c\",\"track_number\":3,\"type\":\"track\",\"uri\":\"spotify:track:37ZJ0p5Jm13JPevGcx4SkF\",\"is_local\":false},{\"album\":{\"album_type\":\"album\",\"total_tracks\":7,\"available_markets\":[\"AR\",\"AU\",\"AT\",\"BE\",\"BO\",\"BR\",\"BG\",\"CA\",\"CL\",\"CO\",\"CR\",\"CY\",\"CZ\",\"DK\",\"DO\",\"DE\",\"EC\",\"EE\",\"SV\",\"FI\",\"FR\",\"GR\",\"GT\",\"HN\",\"HK\",\"HU\",\"IS\",\"IE\",\"IT\",\"LV\",\"LT\",\"LU\",\"MY\",\"MT\",\"MX\",\"NL\",\"NZ\",\"NI\",\"NO\",\"PA\",\"PY\",\"PE\",\"PH\",\"PL\",\"PT\",\"SG\",\"SK\",\"ES\",\"SE\",\"CH\",\"TW\",\"TR\",\"UY\",\"US\",\"GB\",\"AD\",\"LI\",\"MC\",\"ID\",\"TH\",\"VN\",\"RO\",\"IL\",\"ZA\",\"SA\",\"AE\",\"BH\",\"QA\",\"OM\",\"KW\",\"EG\",\"MA\",\"DZ\",\"TN\",\"LB\",\"JO\",\"PS\",\"IN\",\"BY\",\"KZ\",\"MD\",\"UA\",\"AL\",\"BA\",\"HR\",\"ME\",\"MK\",\"RS\",\"SI\",\"KR\",\"BD\",\"PK\",\"LK\",\"GH\",\"KE\",\"NG\",\"TZ\",\"UG\",\"AG\",\"AM\",\"BS\",\"BB\",\"BZ\",\"BT\",\"BW\",\"BF\",\"CV\",\"CW\",\"DM\",\"FJ\",\"GM\",\"GE\",\"GD\",\"GW\",\"GY\",\"HT\",\"JM\",\"KI\",\"LS\",\"LR\",\"MW\",\"MV\",\"ML\",\"MH\",\"FM\",\"NA\",\"NR\",\"NE\",\"PW\",\"PG\",\"PR\",\"WS\",\"SM\",\"ST\",\"SN\",\"SC\",\"SL\",\"SB\",\"KN\",\"LC\",\"VC\",\"SR\",\"TL\",\"TO\",\"TT\",\"TV\",\"VU\",\"AZ\",\"BN\",\"BI\",\"KH\",\"CM\",\"TD\",\"KM\",\"GQ\",\"SZ\",\"GA\",\"GN\",\"KG\",\"LA\",\"MO\",\"MR\",\"MN\",\"NP\",\"RW\",\"TG\",\"UZ\",\"ZW\",\"BJ\",\"MG\",\"MU\",\"MZ\",\"AO\",\"CI\",\"DJ\",\"ZM\",\"CD\",\"CG\",\"IQ\",\"LY\",\"TJ\",\"VE\",\"ET\",\"XK\"],\"external_urls\":{\"spotify\":\"https://open.spotify.com/album/2xMLC2kZe4aMMbupatoDZy\"},\"href\":\"https://api.spotify.com/v1/albums/2xMLC2kZe4aMMbupatoDZy\",\"id\":\"2xMLC2kZe4aMMbupatoDZy\",\"images\":[{\"url\":\"https://i.scdn.co/image/ab67616d0000b27328e32ee7aa94ac26ba6cf004\",\"height\":640,\"width\":640},{\"url\":\"https://i.scdn.co/image/ab67616d00001e0228e32ee7aa94ac26ba6cf004\",\"height\":300,\"width\":300},{\"url\":\"https://i.scdn.co/image/ab67616d0000485128e32ee7aa94ac26ba6cf004\",\"height\":64,\"width\":64}],\"name\":\"Quiet World\",\"release_date\":\"2015-04-21\",\"release_date_precision\":\"day\",\"restrictions\":null,\"type\":\"album\",\"uri\":\"spotify:album:2xMLC2kZe4aMMbupatoDZy\",\"artists\":[{\"external_urls\":{\"spotify\":\"https://open.spotify.com/artist/0qI8ZUA0wp1W5Y2vkhgfNX\"},\"href\":\"https://api.spotify.com/v1/artists/0qI8ZUA0wp1W5Y2vkhgfNX\",\"id\":\"0qI8ZUA0wp1W5Y2vkhgfNX\",\"name\":\"Native Construct\",\"type\":\"artist\",\"uri\":\"spotify:artist:0qI8ZUA0wp1W5Y2vkhgfNX\"}]},\"artists\":[{\"external_urls\":{\"spotify\":\"https://open.spotify.com/artist/0qI8ZUA0wp1W5Y2vkhgfNX\"},\"href\":\"https://api.spotify.com/v1/artists/0qI8ZUA0wp1W5Y2vkhgfNX\",\"id\":\"0qI8ZUA0wp1W5Y2vkhgfNX\",\"name\":\"Native Construct\",\"type\":\"artist\",\"uri\":\"spotify:artist:0qI8ZUA0wp1W5Y2vkhgfNX\"}],\"available_markets\":[\"AR\",\"AU\",\"AT\",\"BE\",\"BO\",\"BR\",\"BG\",\"CA\",\"CL\",\"CO\",\"CR\",\"CY\",\"CZ\",\"DK\",\"DO\",\"DE\",\"EC\",\"EE\",\"SV\",\"FI\",\"FR\",\"GR\",\"GT\",\"HN\",\"HK\",\"HU\",\"IS\",\"IE\",\"IT\",\"LV\",\"LT\",\"LU\",\"MY\",\"MT\",\"MX\",\"NL\",\"NZ\",\"NI\",\"NO\",\"PA\",\"PY\",\"PE\",\"PH\",\"PL\",\"PT\",\"SG\",\"SK\",\"ES\",\"SE\",\"CH\",\"TW\",\"TR\",\"UY\",\"US\",\"GB\",\"AD\",\"LI\",\"MC\",\"ID\",\"TH\",\"VN\",\"RO\",\"IL\",\"ZA\",\"SA\",\"AE\",\"BH\",\"QA\",\"OM\",\"KW\",\"EG\",\"MA\",\"DZ\",\"TN\",\"LB\",\"JO\",\"PS\",\"IN\",\"BY\",\"KZ\",\"MD\",\"UA\",\"AL\",\"BA\",\"HR\",\"ME\",\"MK\",\"RS\",\"SI\",\"KR\",\"BD\",\"PK\",\"LK\",\"GH\",\"KE\",\"NG\",\"TZ\",\"UG\",\"AG\",\"AM\",\"BS\",\"BB\",\"BZ\",\"BT\",\"BW\",\"BF\",\"CV\",\"CW\",\"DM\",\"FJ\",\"GM\",\"GE\",\"GD\",\"GW\",\"GY\",\"HT\",\"JM\",\"KI\",\"LS\",\"LR\",\"MW\",\"MV\",\"ML\",\"MH\",\"FM\",\"NA\",\"NR\",\"NE\",\"PW\",\"PG\",\"PR\",\"WS\",\"SM\",\"ST\",\"SN\",\"SC\",\"SL\",\"SB\",\"KN\",\"LC\",\"VC\",\"SR\",\"TL\",\"TO\",\"TT\",\"TV\",\"VU\",\"AZ\",\"BN\",\"BI\",\"KH\",\"CM\",\"TD\",\"KM\",\"GQ\",\"SZ\",\"GA\",\"GN\",\"KG\",\"LA\",\"MO\",\"MR\",\"MN\",\"NP\",\"RW\",\"TG\",\"UZ\",\"ZW\",\"BJ\",\"MG\",\"MU\",\"MZ\",\"AO\",\"CI\",\"DJ\",\"ZM\",\"CD\",\"CG\",\"IQ\",\"LY\",\"TJ\",\"VE\",\"ET\",\"XK\"],\"disc_number\":1,\"duration_ms\":748653,\"explicit\":false,\"external_ids\":{\"isrc\":\"USMBR1410942\"},\"external_urls\":{\"spotify\":\"https://open.spotify.com/track/3bledE7cA17gYUUj93Z2fC\"},\"href\":\"https://api.spotify.com/v1/tracks/3bledE7cA17gYUUj93Z2fC\",\"id\":\"3bledE7cA17gYUUj93Z2fC\",\"restrictions\":null,\"name\":\"Chromatic Aberration\",\"popularity\":21,\"preview_url\":\"https://p.scdn.co/mp3-preview/425f9f6625d43a63b04ee483a9b158b6e3864166?cid=599d5c355ead41b6b6b8b958bee6c56c\",\"track_number\":7,\"type\":\"track\",\"uri\":\"spotify:track:3bledE7cA17gYUUj93Z2fC\",\"is_local\":false},{\"album\":{\"album_type\":\"single\",\"total_tracks\":1,\"available_markets\":[\"AR\",\"AU\",\"AT\",\"BE\",\"BO\",\"BR\",\"BG\",\"CA\",\"CL\",\"CO\",\"CR\",\"CY\",\"CZ\",\"DK\",\"DO\",\"DE\",\"EC\",\"EE\",\"SV\",\"FI\",\"FR\",\"GR\",\"GT\",\"HN\",\"HK\",\"HU\",\"IS\",\"IE\",\"IT\",\"LV\",\"LT\",\"LU\",\"MY\",\"MT\",\"MX\",\"NL\",\"NZ\",\"NI\",\"NO\",\"PA\",\"PY\",\"PE\",\"PH\",\"PL\",\"PT\",\"SG\",\"SK\",\"ES\",\"SE\",\"CH\",\"TW\",\"TR\",\"UY\",\"US\",\"GB\",\"AD\",\"LI\",\"MC\",\"ID\",\"JP\",\"TH\",\"VN\",\"RO\",\"IL\",\"ZA\",\"SA\",\"AE\",\"BH\",\"QA\",\"OM\",\"KW\",\"EG\",\"MA\",\"DZ\",\"TN\",\"LB\",\"JO\",\"PS\",\"IN\",\"KZ\",\"MD\",\"UA\",\"AL\",\"BA\",\"HR\",\"ME\",\"MK\",\"RS\",\"SI\",\"KR\",\"BD\",\"PK\",\"LK\",\"GH\",\"KE\",\"NG\",\"TZ\",\"UG\",\"AG\",\"AM\",\"BS\",\"BB\",\"BZ\",\"BT\",\"BW\",\"BF\",\"CV\",\"CW\",\"DM\",\"FJ\",\"GM\",\"GE\",\"GD\",\"GW\",\"GY\",\"HT\",\"JM\",\"KI\",\"LS\",\"LR\",\"MW\",\"MV\",\"ML\",\"MH\",\"FM\",\"NA\",\"NR\",\"NE\",\"PW\",\"PG\",\"WS\",\"SM\",\"ST\",\"SN\",\"SC\",\"SL\",\"SB\",\"KN\",\"LC\",\"VC\",\"SR\",\"TL\",\"TO\",\"TT\",\"TV\",\"VU\",\"AZ\",\"BN\",\"BI\",\"KH\",\"CM\",\"TD\",\"KM\",\"GQ\",\"SZ\",\"GA\",\"GN\",\"KG\",\"LA\",\"MO\",\"MR\",\"MN\",\"NP\",\"RW\",\"TG\",\"UZ\",\"ZW\",\"BJ\",\"MG\",\"MU\",\"MZ\",\"AO\",\"CI\",\"DJ\",\"ZM\",\"CD\",\"CG\",\"IQ\",\"LY\",\"TJ\",\"VE\",\"ET\",\"XK\"],\"external_urls\":{\"spotify\":\"https://open.spotify.com/album/3EvVwxsQkXYSuItQMbTshK\"},\"href\":\"https://api.spotify.com/v1/albums/3EvVwxsQkXYSuItQMbTshK\",\"id\":\"3EvVwxsQkXYSuItQMbTshK\",\"images\":[{\"url\":\"https://i.scdn.co/image/ab67616d0000b273514fd72cb9c93ad0e227f633\",\"height\":640,\"width\":640},{\"url\":\"https://i.scdn.co/image/ab67616d00001e02514fd72cb9c93ad0e227f633\",\"height\":300,\"width\":300},{\"url\":\"https://i.scdn.co/image/ab67616d00004851514fd72cb9c93ad0e227f633\",\"height\":64,\"width\":64}],\"name\":\"unravel\",\"release_date\":\"2023-11-15\",\"release_date_precision\":\"day\",\"restrictions\":null,\"type\":\"album\",\"uri\":\"spotify:album:3EvVwxsQkXYSuItQMbTshK\",\"artists\":[{\"external_urls\":{\"spotify\":\"https://open.spotify.com/artist/6mEQK9m2krja6X1cfsAjfl\"},\"href\":\"https://api.spotify.com/v1/artists/6mEQK9m2krja6X1cfsAjfl\",\"id\":\"6mEQK9m2krja6X1cfsAjfl\",\"name\":\"Ado\",\"type\":\"artist\",\"uri\":\"spotify:artist:6mEQK9m2krja6X1cfsAjfl\"}]},\"artists\":[{\"external_urls\":{\"spotify\":\"https://open.spotify.com/artist/6mEQK9m2krja6X1cfsAjfl\"},\"href\":\"https://api.spotify.com/v1/artists/6mEQK9m2krja6X1cfsAjfl\",\"id\":\"6mEQK9m2krja6X1cfsAjfl\",\"name\":\"Ado\",\"type\":\"artist\",\"uri\":\"spotify:artist:6mEQK9m2krja6X1cfsAjfl\"}],\"available_markets\":[\"AR\",\"AU\",\"AT\",\"BE\",\"BO\",\"BR\",\"BG\",\"CA\",\"CL\",\"CO\",\"CR\",\"CY\",\"CZ\",\"DK\",\"DO\",\"DE\",\"EC\",\"EE\",\"SV\",\"FI\",\"FR\",\"GR\",\"GT\",\"HN\",\"HK\",\"HU\",\"IS\",\"IE\",\"IT\",\"LV\",\"LT\",\"LU\",\"MY\",\"MT\",\"MX\",\"NL\",\"NZ\",\"NI\",\"NO\",\"PA\",\"PY\",\"PE\",\"PH\",\"PL\",\"PT\",\"SG\",\"SK\",\"ES\",\"SE\",\"CH\",\"TW\",\"TR\",\"UY\",\"US\",\"GB\",\"AD\",\"LI\",\"MC\",\"ID\",\"JP\",\"TH\",\"VN\",\"RO\",\"IL\",\"ZA\",\"SA\",\"AE\",\"BH\",\"QA\",\"OM\",\"KW\",\"EG\",\"MA\",\"DZ\",\"TN\",\"LB\",\"JO\",\"PS\",\"IN\",\"KZ\",\"MD\",\"UA\",\"AL\",\"BA\",\"HR\",\"ME\",\"MK\",\"RS\",\"SI\",\"KR\",\"BD\",\"PK\",\"LK\",\"GH\",\"KE\",\"NG\",\"TZ\",\"UG\",\"AG\",\"AM\",\"BS\",\"BB\",\"BZ\",\"BT\",\"BW\",\"BF\",\"CV\",\"CW\",\"DM\",\"FJ\",\"GM\",\"GE\",\"GD\",\"GW\",\"GY\",\"HT\",\"JM\",\"KI\",\"LS\",\"LR\",\"MW\",\"MV\",\"ML\",\"MH\",\"FM\",\"NA\",\"NR\",\"NE\",\"PW\",\"PG\",\"WS\",\"SM\",\"ST\",\"SN\",\"SC\",\"SL\",\"SB\",\"KN\",\"LC\",\"VC\",\"SR\",\"TL\",\"TO\",\"TT\",\"TV\",\"VU\",\"AZ\",\"BN\",\"BI\",\"KH\",\"CM\",\"TD\",\"KM\",\"GQ\",\"SZ\",\"GA\",\"GN\",\"KG\",\"LA\",\"MO\",\"MR\",\"MN\",\"NP\",\"RW\",\"TG\",\"UZ\",\"ZW\",\"BJ\",\"MG\",\"MU\",\"MZ\",\"AO\",\"CI\",\"DJ\",\"ZM\",\"CD\",\"CG\",\"IQ\",\"LY\",\"TJ\",\"VE\",\"ET\",\"XK\"],\"disc_number\":1,\"duration_ms\":239400,\"explicit\":false,\"external_ids\":{\"isrc\":\"JPPO02303694\"},\"external_urls\":{\"spotify\":\"https://open.spotify.com/track/3uyiyeKrVPjbMdFGe9sGas\"},\"href\":\"https://api.spotify.com/v1/tracks/3uyiyeKrVPjbMdFGe9sGas\",\"id\":\"3uyiyeKrVPjbMdFGe9sGas\",\"restrictions\":null,\"name\":\"unravel\",\"popularity\":54,\"preview_url\":\"https://p.scdn.co/mp3-preview/92eadb21aee4ea7ec509a8ab78492be5f0c1b533?cid=599d5c355ead41b6b6b8b958bee6c56c\",\"track_number\":1,\"type\":\"track\",\"uri\":\"spotify:track:3uyiyeKrVPjbMdFGe9sGas\",\"is_local\":false},{\"album\":{\"album_type\":\"single\",\"total_tracks\":1,\"available_markets\":[\"AR\",\"AU\",\"AT\",\"BE\",\"BO\",\"BR\",\"BG\",\"CA\",\"CL\",\"CO\",\"CR\",\"CY\",\"CZ\",\"DK\",\"DO\",\"DE\",\"EC\",\"EE\",\"SV\",\"FI\",\"FR\",\"GR\",\"GT\",\"HN\",\"HK\",\"HU\",\"IS\",\"IE\",\"IT\",\"LV\",\"LT\",\"LU\",\"MY\",\"MT\",\"MX\",\"NL\",\"NZ\",\"NI\",\"NO\",\"PA\",\"PY\",\"PE\",\"PH\",\"PL\",\"PT\",\"SG\",\"SK\",\"ES\",\"SE\",\"CH\",\"TW\",\"TR\",\"UY\",\"US\",\"GB\",\"AD\",\"LI\",\"MC\",\"ID\",\"JP\",\"TH\",\"VN\",\"RO\",\"IL\",\"ZA\",\"SA\",\"AE\",\"BH\",\"QA\",\"OM\",\"KW\",\"EG\",\"MA\",\"DZ\",\"TN\",\"LB\",\"JO\",\"PS\",\"IN\",\"BY\",\"KZ\",\"MD\",\"UA\",\"AL\",\"BA\",\"HR\",\"ME\",\"MK\",\"RS\",\"SI\",\"KR\",\"BD\",\"PK\",\"LK\",\"GH\",\"KE\",\"NG\",\"TZ\",\"UG\",\"AG\",\"AM\",\"BS\",\"BB\",\"BZ\",\"BT\",\"BW\",\"BF\",\"CV\",\"CW\",\"DM\",\"FJ\",\"GM\",\"GE\",\"GD\",\"GW\",\"GY\",\"HT\",\"JM\",\"KI\",\"LS\",\"LR\",\"MW\",\"MV\",\"ML\",\"MH\",\"FM\",\"NA\",\"NR\",\"NE\",\"PW\",\"PG\",\"PR\",\"WS\",\"SM\",\"ST\",\"SN\",\"SC\",\"SL\",\"SB\",\"KN\",\"LC\",\"VC\",\"SR\",\"TL\",\"TO\",\"TT\",\"TV\",\"VU\",\"AZ\",\"BN\",\"BI\",\"KH\",\"CM\",\"TD\",\"KM\",\"GQ\",\"SZ\",\"GA\",\"GN\",\"KG\",\"LA\",\"MO\",\"MR\",\"MN\",\"NP\",\"RW\",\"TG\",\"UZ\",\"ZW\",\"BJ\",\"MG\",\"MU\",\"MZ\",\"AO\",\"CI\",\"DJ\",\"ZM\",\"CD\",\"CG\",\"IQ\",\"LY\",\"TJ\",\"VE\",\"ET\",\"XK\"],\"external_urls\":{\"spotify\":\"https://open.spotify.com/album/1FGsYEkFLkIv9ffhgoOgZh\"},\"href\":\"https://api.spotify.com/v1/albums/1FGsYEkFLkIv9ffhgoOgZh\",\"id\":\"1FGsYEkFLkIv9ffhgoOgZh\",\"images\":[{\"url\":\"https://i.scdn.co/image/ab67616d0000b27366692ec3a0f5437132315850\",\"height\":640,\"width\":640},{\"url\":\"https://i.scdn.co/image/ab67616d00001e0266692ec3a0f5437132315850\",\"height\":300,\"width\":300},{\"url\":\"https://i.scdn.co/image/ab67616d0000485166692ec3a0f5437132315850\",\"height\":64,\"width\":64}],\"name\":\"MUKANJYO\",\"release_date\":\"2019-08-02\",\"release_date_precision\":\"day\",\"restrictions\":null,\"type\":\"album\",\"uri\":\"spotify:album:1FGsYEkFLkIv9ffhgoOgZh\",\"artists\":[{\"external_urls\":{\"spotify\":\"https://open.spotify.com/artist/7zyObVag8rUjItn71SkIrh\"},\"href\":\"https://api.spotify.com/v1/artists/7zyObVag8rUjItn71SkIrh\",\"id\":\"7zyObVag8rUjItn71SkIrh\",\"name\":\"Survive Said The Prophet\",\"type\":\"artist\",\"uri\":\"spotify:artist:7zyObVag8rUjItn71SkIrh\"}]},\"artists\":[{\"external_urls\":{\"spotify\":\"https://open.spotify.com/artist/7zyObVag8rUjItn71SkIrh\"},\"href\":\"https://api.spotify.com/v1/artists/7zyObVag8rUjItn71SkIrh\",\"id\":\"7zyObVag8rUjItn71SkIrh\",\"name\":\"Survive Said The Prophet\",\"type\":\"artist\",\"uri\":\"spotify:artist:7zyObVag8rUjItn71SkIrh\"}],\"available_markets\":[\"AR\",\"AU\",\"AT\",\"BE\",\"BO\",\"BR\",\"BG\",\"CA\",\"CL\",\"CO\",\"CR\",\"CY\",\"CZ\",\"DK\",\"DO\",\"DE\",\"EC\",\"EE\",\"SV\",\"FI\",\"FR\",\"GR\",\"GT\",\"HN\",\"HK\",\"HU\",\"IS\",\"IE\",\"IT\",\"LV\",\"LT\",\"LU\",\"MY\",\"MT\",\"MX\",\"NL\",\"NZ\",\"NI\",\"NO\",\"PA\",\"PY\",\"PE\",\"PH\",\"PL\",\"PT\",\"SG\",\"SK\",\"ES\",\"SE\",\"CH\",\"TW\",\"TR\",\"UY\",\"US\",\"GB\",\"AD\",\"LI\",\"MC\",\"ID\",\"JP\",\"TH\",\"VN\",\"RO\",\"IL\",\"ZA\",\"SA\",\"AE\",\"BH\",\"QA\",\"OM\",\"KW\",\"EG\",\"MA\",\"DZ\",\"TN\",\"LB\",\"JO\",\"PS\",\"IN\",\"BY\",\"KZ\",\"MD\",\"UA\",\"AL\",\"BA\",\"HR\",\"ME\",\"MK\",\"RS\",\"SI\",\"KR\",\"BD\",\"PK\",\"LK\",\"GH\",\"KE\",\"NG\",\"TZ\",\"UG\",\"AG\",\"AM\",\"BS\",\"BB\",\"BZ\",\"BT\",\"BW\",\"BF\",\"CV\",\"CW\",\"DM\",\"FJ\",\"GM\",\"GE\",\"GD\",\"GW\",\"GY\",\"HT\",\"JM\",\"KI\",\"LS\",\"LR\",\"MW\",\"MV\",\"ML\",\"MH\",\"FM\",\"NA\",\"NR\",\"NE\",\"PW\",\"PG\",\"PR\",\"WS\",\"SM\",\"ST\",\"SN\",\"SC\",\"SL\",\"SB\",\"KN\",\"LC\",\"VC\",\"SR\",\"TL\",\"TO\",\"TT\",\"TV\",\"VU\",\"AZ\",\"BN\",\"BI\",\"KH\",\"CM\",\"TD\",\"KM\",\"GQ\",\"SZ\",\"GA\",\"GN\",\"KG\",\"LA\",\"MO\",\"MR\",\"MN\",\"NP\",\"RW\",\"TG\",\"UZ\",\"ZW\",\"BJ\",\"MG\",\"MU\",\"MZ\",\"AO\",\"CI\",\"DJ\",\"ZM\",\"CD\",\"CG\",\"IQ\",\"LY\",\"TJ\",\"VE\",\"ET\",\"XK\"],\"disc_number\":1,\"duration_ms\":192400,\"explicit\":false,\"external_ids\":{\"isrc\":\"JPU901901409\"},\"external_urls\":{\"spotify\":\"https://open.spotify.com/track/4MTgIH5OZQHAbdBWgbKSAb\"},\"href\":\"https://api.spotify.com/v1/tracks/4MTgIH5OZQHAbdBWgbKSAb\",\"id\":\"4MTgIH5OZQHAbdBWgbKSAb\",\"restrictions\":null,\"name\":\"MUKANJYO\",\"popularity\":59,\"preview_url\":\"https://p.scdn.co/mp3-preview/baca48eb7f7f174f60c4e3c9ce5cb70bb46101a5?cid=599d5c355ead41b6b6b8b958bee6c56c\",\"track_number\":1,\"type\":\"track\",\"uri\":\"spotify:track:4MTgIH5OZQHAbdBWgbKSAb\",\"is_local\":false}]}"